<svg xmlns="http://www.w3.org/2000/svg" viewBox="0 0 99 99" width="99" height="99">
	<style>
		tspan { white-space:pre }
		.shp0 { fill: #2280ce;stroke: #ffffff;stroke-width: 6.679 } 
		.shp1 { fill: #ffffff } 
	</style>
	<g id="Page 2">
		<path id="Path 5" class="shp0" d="M49,87.55c20.74,0 37.55,-16.81 37.55,-37.55c0,-20.73 -16.81,-37.55 -37.55,-37.55c-20.74,0 -37.55,16.81 -37.55,37.55c0,20.74 16.81,37.56 37.55,37.56z" />
		<path id="Path 6" class="shp1" d="M45.75,42.01h8.48l-3.84,27.49h-8.49zM46.26,33.36c0.11,-0.68 0.34,-1.32 0.68,-1.92c0.34,-0.6 0.76,-1.12 1.27,-1.56c0.51,-0.43 1.08,-0.78 1.72,-1.04c0.64,-0.27 1.3,-0.4 1.98,-0.4c1.36,0 2.44,0.48 3.25,1.44c0.81,0.97 1.13,2.12 0.94,3.48c-0.08,0.68 -0.29,1.32 -0.62,1.92c-0.34,0.61 -0.77,1.13 -1.28,1.56c-0.51,0.43 -1.08,0.78 -1.72,1.05c-0.64,0.26 -1.3,0.39 -1.98,0.39c-0.68,0 -1.3,-0.13 -1.87,-0.39c-0.56,-0.27 -1.03,-0.62 -1.41,-1.05c-0.38,-0.43 -0.65,-0.95 -0.82,-1.56c-0.17,-0.6 -0.22,-1.24 -0.14,-1.92z" />
	</g>
</svg>