<?xml version="1.0" encoding="UTF-8" standalone="no"?>
<svg width="68px" height="41px" viewBox="0 0 68 41" version="1.1" xmlns="http://www.w3.org/2000/svg" xmlns:xlink="http://www.w3.org/1999/xlink">
    <!-- Generator: sketchtool 41 (35326) - http://www.bohemiancoding.com/sketch -->
    <title>6CC87915-A11F-44BE-92E1-30728170FE45</title>
    <desc>Created with sketchtool.</desc>
    <defs>
        <rect id="path-1" x="0.942918687" y="0.917505304" width="67" height="40" rx="6"></rect>
        <linearGradient x1="-0.000453828612%" y1="49.999366%" x2="99.9990923%" y2="49.999366%" id="linearGradient-2">
            <stop stop-color="#E70000" stop-opacity="0" offset="0%"></stop>
            <stop stop-color="#DE0000" stop-opacity="0.4506" offset="33.17%"></stop>
            <stop stop-color="#CD0000" offset="73.62%"></stop>
            <stop stop-color="#C20000" offset="79.31%"></stop>
            <stop stop-color="#A60000" offset="89.16%"></stop>
            <stop stop-color="#800000" offset="100%"></stop>
        </linearGradient>
        <linearGradient x1="-0.000453828612%" y1="50%" x2="99.9990923%" y2="50%" id="linearGradient-3">
            <stop stop-color="#E70000" stop-opacity="0" offset="0%"></stop>
            <stop stop-color="#DE0000" stop-opacity="0.4506" offset="33.17%"></stop>
            <stop stop-color="#CD0000" offset="73.62%"></stop>
            <stop stop-color="#C20000" offset="79.31%"></stop>
            <stop stop-color="#A60000" offset="89.16%"></stop>
            <stop stop-color="#800000" offset="100%"></stop>
        </linearGradient>
    </defs>
    <g id="Page-1" stroke="none" stroke-width="1" fill="none" fill-rule="evenodd">
        <g id="Assets-DevCode-Desktop-1440x900" transform="translate(-498.000000, -717.000000)">
            <g id="Saved-Despoit-Methods" transform="translate(471.000000, -25.000000)">
                <g id="Payment-Type-BankTransfer" transform="translate(26.000000, 741.000000)">
                    <g id="Icon-Card" transform="translate(0.942919, 0.917505)">
                        <g id="Set">
                            <g id="Icon-BankTransfer">
                                <g id="Rectangle-10" fill="#FFFFFF">
                                    <use xlink:href="#path-1"></use>
                                    <use xlink:href="#path-1"></use>
                                </g>
                                <g id="Logo-BankTransfer" transform="translate(13.000000, 14.000000)">
                                    <polygon id="Shape" fill="#00AFD8" points="1.24353103 15 1.24353103 10.4180502 0 10.4180502 0 9 4 9 4 10.4180502 2.75637598 10.4180502 2.75637598 15"></polygon>
                                    <path d="M6,15 L6,9 L7.79588474,9 C8.49926061,9 8.98947947,9.03075944 9.26654132,9.09217779 C9.54360318,9.15369666 9.78263901,9.25683124 9.98364881,9.40158153 C10.2104318,9.56553134 10.3848234,9.77461509 10.5069292,10.0286317 C10.6289294,10.2826484 10.6899823,10.5628005 10.6899823,10.868686 C10.6899823,11.3331937 10.5700946,11.7110523 10.330425,12.0018596 C10.0905442,12.2929686 9.74102163,12.48617 9.2816461,12.5819665 L11,15 L9.05771506,15 L7.61071911,12.6516276 L7.61071911,15 L6,15 L6,15 Z M7.61071911,11.8359999 L7.92939834,11.8359999 C8.29972959,11.8359999 8.57024252,11.7757878 8.74114839,11.6555647 C8.91205425,11.535442 8.99750718,11.3469651 8.99750718,11.0900333 C8.99750718,10.7894754 8.91786378,10.5756672 8.75847135,10.4487091 C8.59918455,10.32155 8.33141795,10.2581213 7.95527717,10.2581213 L7.61082474,10.2581213 L7.61082474,11.8359999 L7.61071911,11.8359999 Z" id="Shape" fill="#00AFD8"></path>
                                    <path d="M10,15 L12.0052593,9 L13.9907475,9 L16,15 L14.4235695,15 L14.1297297,13.9261338 L11.8781592,13.9261338 L11.5763331,15 L10,15 Z M12.2197224,12.7581799 L13.7961529,12.7581799 L13.2044802,10.7786192 C13.1859752,10.7185076 13.1608473,10.6216053 13.1289993,10.4876108 C13.0972486,10.3538173 13.0562454,10.1817253 13.0058924,9.97123423 C12.9714147,10.1187991 12.9377161,10.259428 12.9046993,10.3933221 C12.8715851,10.5271155 12.8377891,10.6555814 12.8034088,10.7785187 L12.2197224,12.7581799 Z" id="Shape" fill="#00AFD8"></path>
                                    <path d="M17,15 L17,9.00010052 L18.6142811,9.00010052 L20.9330168,12.0860446 C20.9776494,12.1490702 21.0508716,12.275222 21.1529918,12.4652036 C21.2550092,12.6550846 21.3677219,12.8811526 21.4906158,13.1434076 C21.45709,12.8948233 21.432614,12.6735802 21.4172908,12.4795778 C21.4018648,12.285475 21.3941518,12.1133858 21.3941518,11.9631094 L21.3941518,9 L23,9 L23,14.9998995 L21.3941518,14.9998995 L19.0754161,11.9015916 C19.0278011,11.8386664 18.9531392,11.7124141 18.8511218,11.5225331 C18.7490016,11.332451 18.6379343,11.109298 18.517817,10.8523706 C18.5513429,11.1037695 18.5756132,11.3264198 18.591142,11.5204222 C18.6063624,11.714525 18.6142811,11.8867147 18.6142811,12.0368906 L18.6142811,15 L17,15 L17,15 Z" id="Shape" fill="#00AFD8"></path>
                                    <path d="M24.6663339,13.0024878 C24.8858738,13.2652378 25.1023279,13.4615826 25.3156963,13.5915223 C25.5290648,13.7215577 25.7417979,13.7866233 25.9539865,13.7866233 C26.151291,13.7866233 26.3134728,13.7306478 26.4405318,13.6188881 C26.5675001,13.5071285 26.6311204,13.3653239 26.6311204,13.1936657 C26.6311204,13.0038274 26.5762127,12.8575256 26.4665789,12.7547603 C26.3566729,12.651995 26.1082725,12.5460721 25.7209239,12.4368003 C25.1905432,12.2860013 24.8155375,12.0895608 24.5959976,11.8477658 C24.3764578,11.6059707 24.2666425,11.2743278 24.2666425,10.8530284 C24.2666425,10.3068606 24.4398965,9.86154435 24.7865862,9.51688834 C25.1330036,9.17213664 25.5826111,9 26.1352271,9 C26.4337251,9 26.7167037,9.04219692 26.9844353,9.12678213 C27.2518945,9.21127165 27.5054681,9.33929767 27.7447928,9.51105157 L27.2822072,10.6306574 C27.1143985,10.4799541 26.9423243,10.3659937 26.7659845,10.289446 C26.5896447,10.2127069 26.41512,10.1742417 26.2423197,10.1742417 C26.0647094,10.1742417 25.9204066,10.2192135 25.8094114,10.3087743 C25.6983255,10.3986221 25.6428733,10.5136351 25.6428733,10.6541001 C25.6428733,10.7971486 25.6915188,10.9114917 25.7889912,10.9973208 C25.8863729,11.0831499 26.074511,11.165056 26.3533149,11.2430389 L26.4199301,11.2625586 C27.0217362,11.4342168 27.4177066,11.6229069 27.6076598,11.8282461 C27.7358987,11.9688068 27.8333711,12.1371161 27.8999864,12.3334609 C27.9666016,12.5299014 28,12.747584 28,12.9868912 C28,13.5929576 27.8112266,14.079801 27.4338612,14.4479954 C27.0564959,14.8159985 26.5531606,15 25.9241276,15 C25.5466715,15 25.2031583,14.9322553 24.8935881,14.7971486 C24.5840178,14.6619462 24.2862459,14.4499091 24,14.1612286 L24.6663339,13.0024878 Z" id="Shape" fill="#00AFD8"></path>
                                    <polygon id="Shape" fill="#00AFD8" points="29 15 29 9 33 9 33 10.3156193 30.7346604 10.3156193 30.7346604 11.3565146 32.8706114 11.3565146 32.8706114 12.6434854 30.7346604 12.6434854 30.7346604 15"></polygon>
                                    <polygon id="Shape" fill="#00AFD8" points="34 15 34 9 38 9 38 10.3156193 35.7345985 10.3156193 35.7345985 11.3565146 37.8707172 11.3565146 37.8707172 12.6434854 35.7345985 12.6434854 35.7345985 13.6556317 38 13.6556317 38 15 34 15"></polygon>
                                    <path d="M39,15 L39,9 L40.7958847,9 C41.4992606,9 41.9894795,9.03075944 42.2665413,9.09217779 C42.5436032,9.15369666 42.7827446,9.25683124 42.9835432,9.40158153 C43.2104318,9.56553134 43.3848234,9.77461509 43.5068236,10.0286317 C43.6287181,10.2826484 43.6898766,10.5628005 43.6898766,10.868686 C43.6898766,11.3331937 43.5698834,11.7110523 43.3303194,12.0018596 C43.0904386,12.2929686 42.7410216,12.48617 42.2816461,12.5819665 L44,15 L42.0577151,15 L40.6106135,12.6516276 L40.6106135,15 L39,15 Z M40.6106135,11.8359999 L40.9293983,11.8359999 C41.2998352,11.8359999 41.5703481,11.7757878 41.7411484,11.6555647 C41.9119486,11.535442 41.9975072,11.3469651 41.9975072,11.0900333 C41.9975072,10.7894754 41.9178638,10.5756672 41.7584714,10.4487091 C41.5990789,10.32155 41.3314179,10.2581213 40.9552772,10.2581213 L40.6106135,10.2581213 L40.6106135,11.8359999 L40.6106135,11.8359999 Z" id="Shape" fill="#00AFD8"></path>
                                    <path d="M11,7.99989948 L11,0 L13.0939771,0 C13.9573501,0 14.5605008,0.0292510083 14.9033332,0.0874514682 C15.2461657,0.145752447 15.5412571,0.2458693 15.7885114,0.388003066 C16.0704428,0.551949439 16.2853255,0.771382261 16.4333515,1.04650257 C16.5813775,1.32152236 16.6553424,1.63936321 16.6553424,2.00002513 C16.6553424,2.4554764 16.5447792,2.81694247 16.3237488,3.08472489 C16.1026224,3.35250732 15.7500881,3.55555556 15.2663379,3.69397012 C15.8093561,3.73769585 16.2341263,3.93712541 16.5404566,4.2923593 C16.8466908,4.6475932 17,5.12204254 17,5.71580786 C17,6.14200812 16.9138356,6.5173458 16.7415068,6.84141882 C16.5691781,7.16579341 16.3228843,7.41709073 16.0026256,7.59551183 C15.7415389,7.74126428 15.4195511,7.84499981 15.0365662,7.90701999 C14.6535814,7.96904017 14.0268964,8 13.1567033,8 L11,8 L11,7.99989948 Z M12.9321187,3.19670298 L13.3498767,3.19670298 C13.8649419,3.19670298 14.2184368,3.13759785 14.4098812,3.01908603 C14.6012295,2.90077525 14.6970958,2.69581716 14.6970958,2.40431226 C14.6970958,2.10205184 14.6074733,1.88985638 14.4282284,1.76772588 C14.2488873,1.64579642 13.8999071,1.58468092 13.3811918,1.58468092 L12.9321187,1.58468092 L12.9321187,3.19670298 L12.9321187,3.19670298 Z M12.9321187,6.36596429 L13.6631232,6.36596429 C14.1574397,6.36596429 14.5072844,6.30133062 14.7127534,6.17196276 C14.9182223,6.04269542 15.0208127,5.82678076 15.0208127,5.52452034 C15.0208127,5.18939023 14.9268675,4.95528164 14.7387852,4.8222951 C14.5507989,4.68940907 14.2026832,4.62286554 13.6944382,4.62286554 L12.9320227,4.62286554 L12.9320227,6.36596429 L12.9321187,6.36596429 Z" id="Shape" fill="#006E90"></path>
                                    <path d="M17,8 L19.6737439,0 L22.3209968,0 L25,8 L22.8981507,8 L22.5063367,6.56829091 L19.504474,6.56829091 L19.1019467,8 L17,8 Z M19.9594965,5.01093157 L22.0615405,5.01093157 L21.2725557,2.37157289 C21.2478178,2.29155882 21.2143144,2.16218933 21.1719482,1.98366547 C21.1295821,1.80524213 21.0748469,1.57565401 21.0077428,1.29510215 C20.9618704,1.49182017 20.9168746,1.67949137 20.8727554,1.85791471 C20.8285387,2.03643857 20.7835429,2.20762446 20.737768,2.37157289 L19.9594965,5.01093157 Z" id="Shape" fill="#006E90"></path>
                                    <path d="M27,8 L27,0 L29.1523312,0 L32.2438971,4.11469354 C32.3033384,4.19852738 32.4011389,4.36699922 32.5374015,4.62020958 C32.6733555,4.87341995 32.8232958,5.17488 32.9875307,5.52458975 C32.9426926,5.19307416 32.9099896,4.8980474 32.8896273,4.63930842 C32.8691622,4.38066997 32.8588783,4.15128289 32.8588783,3.95084563 L32.8588783,0 L35,0 L35,8 L32.8588783,8 L29.7673124,3.86882115 C29.7038603,3.78508783 29.6043116,3.61661599 29.4682547,3.3633051 C29.3321978,3.11009474 29.183903,2.81235393 29.0237817,2.46988164 C29.0686198,2.80511648 29.1012199,3.10205312 29.121685,3.36059106 C29.1420473,3.61922951 29.1524341,3.84881763 29.1524341,4.04915437 L29.1524341,8 L27,8 Z" id="Shape" fill="#006E90"></path>
                                    <polygon id="Shape" fill="#006E90" points="36 8 36 0 38.3065686 0 38.3065686 3.63380494 41.0102583 0 43.7255492 0 40.5664107 3.90159073 44 7.99989948 41.0920028 7.99989948 38.3065686 4.4097203 38.3065686 7.99989948 36 7.99989948"></polygon>
                                    <rect id="Rectangle-path" fill="url(#linearGradient-2)" x="-1.77635684e-15" y="6.93525052e-17" width="9" height="2"></rect>
                                    <rect id="Rectangle-path" fill="url(#linearGradient-3)" x="-1.77635684e-15" y="3" width="9" height="2"></rect>
                                    <rect id="Rectangle-path" fill="url(#linearGradient-3)" x="-1.77635684e-15" y="6" width="9" height="2"></rect>
                                </g>
                            </g>
                        </g>
                    </g>
                </g>
            </g>
        </g>
    </g>
</svg>