<?xml version="1.0" encoding="iso-8859-1"?>
<!-- Generator: Adobe Illustrator 19.0.0, SVG Export Plug-In . SVG Version: 6.00 Build 0)  -->
<svg version="1.1" xmlns="http://www.w3.org/2000/svg" xmlns:xlink="http://www.w3.org/1999/xlink" x="0px" y="0px"
	 viewBox="0 0 89.439 24.004" style="enable-background:new 0 0 89.439 24.004;" xml:space="preserve">
<g id="visa">
	<g id="XMLID_1_">
		<g id="XMLID_76_">
			<path id="XMLID_78_" style="fill:#273991;" d="M26.755,5.26c-3.276,0-5.577,1.742-5.598,4.232
				c-0.021,1.845,1.646,2.874,2.899,3.487c1.293,0.627,1.725,1.03,1.721,1.59c-0.013,0.86-1.035,1.251-1.984,1.251
				c-1.324,0-2.03-0.193-3.114-0.67l-0.43-0.204l-0.463,2.87c0.775,0.357,2.205,0.667,3.692,0.683c3.476,0,5.738-1.722,5.765-4.38
				c0.014-1.463-0.871-2.571-2.783-3.485c-1.155-0.594-1.868-0.989-1.858-1.591C24.602,8.51,25.2,7.94,26.499,7.94
				c1.084-0.018,1.864,0.231,2.478,0.493l0.295,0.147l0.451-2.78C29.069,5.541,28.036,5.26,26.755,5.26L26.755,5.26z M16.471,5.484
				l-2.072,12.826h3.311l2.073-12.826L16.471,5.484L16.471,5.484z M11.621,5.496l-3.242,8.741l-0.346-1.776
				c-0.807-2.178-2.555-4.463-4.59-5.388l2.965,11.224l3.506-0.002l5.213-12.799L11.621,5.496L11.621,5.496z M35.658,5.497
				c-0.793,0-1.388,0.226-1.738,1.065l-4.916,11.752h3.478c0,0,0.569-1.582,0.697-1.928c0.38,0,3.758,0.007,4.24,0.007
				c0.102,0.447,0.403,1.921,0.403,1.921h3.075L38.217,5.497L35.658,5.497L35.658,5.497z M35.892,8.955l0.221,1.106
				c0,0,0.636,3.06,0.769,3.701h-2.749c0.275-0.736,1.319-3.585,1.319-3.585C35.432,10.211,35.724,9.435,35.892,8.955L35.892,8.955z
				"/>
			<path id="XMLID_77_" style="fill:#FBAA19;" d="M5.372,5.489H0.031L0,5.71c4.153,1.062,6.892,3.67,8.033,6.754L6.872,6.57
				C6.673,5.759,6.092,5.518,5.372,5.489"/>
		</g>
		<g id="XMLID_8_">
			<g id="XMLID_9_">
				<g id="XMLID_71_">
					<g id="XMLID_72_">
						<circle id="XMLID_75_" style="fill:#ED1C2E;" cx="61.323" cy="12.002" r="12.002"/>
						<g id="XMLID_73_">
							<path id="XMLID_74_" style="fill:#FCB131;" d="M77.437,0c-3.102,0-5.927,1.177-8.057,3.107
								c-0.433,0.393-0.838,0.818-1.211,1.27h2.425c0.331,0.403,0.637,0.827,0.915,1.271h-4.255
								c-0.255,0.408-0.486,0.832-0.692,1.271h5.638c0.193,0.412,0.362,0.836,0.508,1.271h-6.654
								c-0.139,0.414-0.255,0.838-0.349,1.271h7.351c0.176,0.819,0.27,1.669,0.27,2.542c0,1.333-0.217,2.615-0.618,3.813h-6.654
								c0.146,0.435,0.316,0.859,0.508,1.271h5.638c-0.206,0.439-0.436,0.862-0.692,1.271h-4.254
								c0.278,0.443,0.583,0.867,0.915,1.27h2.424c-0.373,0.453-0.778,0.878-1.212,1.271c2.13,1.93,4.955,3.106,8.057,3.106
								c6.629,0,12.002-5.373,12.002-12.002C89.439,5.374,84.065,0,77.437,0z"/>
						</g>
					</g>
				</g>
				<g id="XMLID_10_">
					<g id="XMLID_48_">
						<path id="XMLID_66_" style="fill:#003473;" d="M58.521,13.316c-0.137-0.016-0.197-0.021-0.291-0.021
							c-0.738,0-1.112,0.254-1.112,0.754c0,0.308,0.182,0.504,0.467,0.504C58.116,14.554,58.498,14.049,58.521,13.316z
							 M59.469,15.522c-0.174,0-1.08,0-1.08,0l0.025-0.513c-0.329,0.405-0.769,0.599-1.366,0.599c-0.706,0-1.19-0.551-1.19-1.352
							c0-1.206,0.842-1.909,2.288-1.909c0.148,0,0.337,0.014,0.531,0.038c0.04-0.163,0.051-0.233,0.051-0.321
							c0-0.328-0.227-0.451-0.835-0.451c-0.638-0.007-1.163,0.152-1.379,0.223c0.014-0.082,0.181-1.113,0.181-1.113
							c0.649-0.191,1.077-0.262,1.559-0.262c1.119,0,1.712,0.502,1.71,1.452c0.002,0.255-0.04,0.568-0.106,0.981
							C59.745,13.61,59.502,15.148,59.469,15.522z"/>
						<polygon id="XMLID_65_" style="fill:#003473;" points="55.313,15.522 54.009,15.522 54.756,10.843 53.089,15.522 
							52.201,15.522 52.092,10.869 51.307,15.522 50.088,15.522 51.106,9.434 52.98,9.434 53.093,12.842 54.236,9.434 56.32,9.434 
													"/>
						<path id="XMLID_60_" style="fill:#003473;" d="M79.047,13.316c-0.137-0.016-0.196-0.021-0.29-0.021
							c-0.739,0-1.112,0.254-1.112,0.754c0,0.308,0.182,0.504,0.467,0.504C78.642,14.554,79.025,14.049,79.047,13.316z
							 M79.995,15.522c-0.174,0-1.08,0-1.08,0l0.024-0.513c-0.329,0.405-0.769,0.599-1.365,0.599c-0.707,0-1.191-0.551-1.191-1.352
							c0-1.206,0.842-1.909,2.288-1.909c0.148,0,0.337,0.014,0.531,0.038c0.04-0.163,0.051-0.233,0.051-0.321
							c0-0.328-0.227-0.451-0.835-0.451c-0.638-0.007-1.163,0.152-1.38,0.223c0.014-0.082,0.182-1.113,0.182-1.113
							c0.649-0.191,1.077-0.262,1.558-0.262c1.12,0,1.712,0.502,1.711,1.452c0.002,0.255-0.04,0.568-0.106,0.981
							C80.271,13.61,80.028,15.148,79.995,15.522z"/>
						<path id="XMLID_59_" style="fill:#003473;" d="M65.259,15.447c-0.357,0.112-0.635,0.161-0.936,0.161
							c-0.666,0-1.029-0.383-1.029-1.088c-0.009-0.219,0.096-0.794,0.178-1.32c0.075-0.463,0.565-3.379,0.565-3.379h1.295
							l-0.151,0.749h0.782l-0.177,1.19h-0.785c-0.15,0.941-0.365,2.114-0.367,2.27c0,0.255,0.136,0.367,0.446,0.367
							c0.149,0,0.263-0.015,0.351-0.047L65.259,15.447z"/>
						<path id="XMLID_54_" style="fill:#003473;" d="M69.23,15.407c-0.445,0.136-0.874,0.202-1.329,0.201
							c-1.45-0.002-2.206-0.758-2.206-2.209c0-1.692,0.961-2.938,2.267-2.938c1.068,0,1.75,0.698,1.75,1.791
							c0,0.363-0.047,0.718-0.16,1.218h-2.579c-0.087,0.718,0.372,1.018,1.126,1.018c0.463,0,0.882-0.096,1.346-0.311L69.23,15.407z
							 M68.502,12.472c0.008-0.103,0.137-0.884-0.603-0.884c-0.412,0-0.707,0.315-0.827,0.884H68.502z"/>
						<path id="XMLID_53_" style="fill:#003473;" d="M60.25,12.137c0,0.626,0.304,1.058,0.992,1.382
							c0.528,0.248,0.609,0.322,0.609,0.546c0,0.309-0.233,0.448-0.748,0.448c-0.389,0-0.751-0.061-1.168-0.196
							c0,0-0.171,1.092-0.179,1.144c0.296,0.064,0.56,0.124,1.356,0.146c1.375,0,2.01-0.523,2.01-1.655
							c0-0.68-0.266-1.08-0.918-1.38c-0.546-0.25-0.609-0.307-0.609-0.538c0-0.268,0.217-0.404,0.638-0.404
							c0.256,0,0.605,0.027,0.936,0.074l0.185-1.148c-0.337-0.054-0.849-0.096-1.147-0.096C60.75,10.461,60.245,11.222,60.25,12.137
							z"/>
						<path id="XMLID_52_" style="fill:#003473;" d="M75.567,10.591c0.362,0,0.7,0.094,1.164,0.329l0.213-1.321
							c-0.192-0.075-0.863-0.515-1.432-0.515c-0.872,0-1.61,0.433-2.128,1.146c-0.756-0.25-1.068,0.256-1.448,0.76l-0.338,0.079
							c0.026-0.166,0.049-0.331,0.041-0.498h-1.197c-0.163,1.533-0.453,3.085-0.68,4.618l-0.059,0.333h1.304
							c0.218-1.414,0.336-2.319,0.409-2.932l0.491-0.272c0.073-0.273,0.303-0.365,0.763-0.354c-0.06,0.323-0.093,0.663-0.093,1.015
							c0,1.62,0.875,2.628,2.277,2.628c0.361,0,0.671-0.047,1.152-0.178l0.229-1.388c-0.432,0.212-0.786,0.312-1.107,0.312
							c-0.757,0-1.216-0.559-1.216-1.483C73.913,11.53,74.594,10.591,75.567,10.591z"/>
						<path id="XMLID_49_" style="fill:#003473;" d="M86.599,9.434l-0.289,1.759c-0.356-0.468-0.738-0.808-1.244-0.808
							c-0.657,0-1.256,0.498-1.648,1.232c-0.546-0.113-1.109-0.306-1.109-0.306l-0.001,0.005c0.044-0.41,0.062-0.66,0.058-0.745
							h-1.197c-0.163,1.533-0.453,3.085-0.679,4.618l-0.06,0.333h1.304c0.176-1.143,0.311-2.092,0.41-2.845
							c0.446-0.403,0.669-0.753,1.118-0.73c-0.199,0.482-0.316,1.037-0.316,1.606c0,1.237,0.626,2.054,1.573,2.054
							c0.478,0,0.844-0.165,1.201-0.546l-0.061,0.46h1.233l0.992-6.087H86.599z M84.969,14.378c-0.443,0-0.668-0.329-0.668-0.976
							c0-0.973,0.42-1.663,1.01-1.663c0.448,0,0.69,0.341,0.69,0.97C86.003,13.691,85.576,14.378,84.969,14.378z"/>
					</g>
					<g id="XMLID_11_">
						<polygon id="XMLID_47_" style="fill:#FFFFFF;" points="55.687,15.161 54.384,15.161 55.131,10.481 53.464,15.161 
							52.576,15.161 52.467,10.509 51.682,15.161 50.462,15.161 51.481,9.073 53.355,9.073 53.407,12.842 54.672,9.073 
							56.695,9.073 						"/>
						<path id="XMLID_42_" style="fill:#FFFFFF;" d="M58.896,12.956c-0.137-0.016-0.197-0.02-0.291-0.02
							c-0.739,0-1.112,0.253-1.112,0.753c0,0.308,0.183,0.505,0.467,0.505C58.491,14.193,58.873,13.688,58.896,12.956z
							 M59.844,15.161c-0.174,0-1.08,0-1.08,0l0.025-0.513c-0.329,0.405-0.769,0.599-1.366,0.599c-0.706,0-1.19-0.552-1.19-1.353
							c0-1.206,0.842-1.908,2.288-1.908c0.148,0,0.337,0.014,0.531,0.039c0.04-0.164,0.051-0.233,0.051-0.322
							c0-0.328-0.227-0.449-0.836-0.449c-0.638-0.008-1.163,0.151-1.38,0.222c0.014-0.082,0.181-1.113,0.181-1.113
							c0.649-0.19,1.077-0.262,1.559-0.262c1.119,0,1.712,0.503,1.71,1.452c0.002,0.255-0.04,0.569-0.106,0.981
							C60.119,13.249,59.877,14.787,59.844,15.161z"/>
						<path id="XMLID_41_" style="fill:#FFFFFF;" d="M77.32,9.238l-0.213,1.321c-0.465-0.234-0.803-0.329-1.164-0.329
							c-0.973,0-1.655,0.94-1.655,2.281c0,0.924,0.459,1.482,1.216,1.482c0.321,0,0.675-0.099,1.107-0.312l-0.229,1.388
							c-0.48,0.131-0.79,0.178-1.151,0.178c-1.403,0-2.277-1.009-2.277-2.628c0-2.177,1.208-3.698,2.934-3.698
							C76.457,8.921,77.129,9.162,77.32,9.238z"/>
						<path id="XMLID_36_" style="fill:#FFFFFF;" d="M79.422,12.956c-0.136-0.016-0.196-0.02-0.29-0.02
							c-0.738,0-1.112,0.253-1.112,0.753c0,0.308,0.182,0.505,0.467,0.505C79.017,14.193,79.4,13.688,79.422,12.956z M80.37,15.161
							c-0.174,0-1.08,0-1.08,0l0.024-0.513c-0.329,0.405-0.769,0.599-1.365,0.599c-0.707,0-1.19-0.552-1.19-1.353
							c0-1.206,0.841-1.908,2.287-1.908c0.148,0,0.337,0.014,0.531,0.039c0.04-0.164,0.051-0.233,0.051-0.322
							c0-0.328-0.226-0.449-0.835-0.449c-0.637-0.008-1.163,0.151-1.379,0.222c0.014-0.082,0.181-1.113,0.181-1.113
							c0.65-0.19,1.077-0.262,1.559-0.262c1.119,0,1.712,0.503,1.71,1.452c0.003,0.255-0.04,0.569-0.105,0.981
							C80.646,13.249,80.403,14.787,80.37,15.161z"/>
						<path id="XMLID_35_" style="fill:#FFFFFF;" d="M65.634,15.086c-0.356,0.112-0.634,0.161-0.936,0.161
							c-0.666,0-1.03-0.383-1.03-1.087c-0.009-0.22,0.096-0.794,0.179-1.32c0.075-0.463,0.565-3.379,0.565-3.379h1.295l-0.151,0.75
							h0.665L66.044,11.4h-0.667c-0.15,0.942-0.365,2.114-0.368,2.27c0,0.256,0.137,0.367,0.446,0.367
							c0.148,0,0.263-0.015,0.351-0.047L65.634,15.086z"/>
						<path id="XMLID_30_" style="fill:#FFFFFF;" d="M69.606,15.047c-0.445,0.136-0.875,0.201-1.329,0.2
							c-1.45-0.001-2.206-0.759-2.206-2.209c0-1.693,0.961-2.939,2.266-2.939c1.069,0,1.75,0.698,1.75,1.792
							c0,0.363-0.047,0.717-0.159,1.217h-2.579c-0.088,0.718,0.372,1.018,1.125,1.018c0.464,0,0.882-0.096,1.347-0.312
							L69.606,15.047z M68.878,12.111c0.007-0.103,0.137-0.884-0.603-0.884c-0.412,0-0.707,0.315-0.828,0.884H68.878z"/>
						<path id="XMLID_29_" style="fill:#FFFFFF;" d="M60.625,11.775c0,0.627,0.304,1.058,0.992,1.383
							c0.528,0.248,0.609,0.322,0.609,0.546c0,0.309-0.233,0.448-0.748,0.448c-0.389,0-0.75-0.06-1.168-0.195
							c0,0-0.171,1.091-0.179,1.143c0.296,0.065,0.56,0.124,1.356,0.147c1.375,0,2.01-0.523,2.01-1.655
							c0-0.681-0.266-1.08-0.918-1.379c-0.546-0.251-0.609-0.307-0.609-0.538c0-0.268,0.217-0.405,0.638-0.405
							c0.255,0,0.605,0.028,0.936,0.075l0.186-1.148c-0.337-0.053-0.849-0.097-1.147-0.097
							C61.125,10.099,60.621,10.861,60.625,11.775z"/>
						<path id="XMLID_24_" style="fill:#FFFFFF;" d="M87.267,15.161h-1.232l0.061-0.461c-0.358,0.382-0.724,0.547-1.201,0.547
							c-0.947,0-1.573-0.816-1.573-2.055c0-1.647,0.971-3.035,2.12-3.035c0.506,0,0.888,0.206,1.244,0.675l0.289-1.759h1.285
							L87.267,15.161z M85.344,14.017c0.607,0,1.033-0.688,1.033-1.668c0-0.629-0.243-0.971-0.69-0.971
							c-0.591,0-1.01,0.69-1.01,1.663C84.677,13.69,84.901,14.017,85.344,14.017z"/>
						<path id="XMLID_23_" style="fill:#FFFFFF;" d="M81.544,10.21c-0.163,1.532-0.453,3.084-0.68,4.617l-0.059,0.333h1.303
							c0.466-3.028,0.578-3.618,1.31-3.544c0.116-0.62,0.333-1.162,0.495-1.436c-0.546-0.114-0.85,0.195-1.25,0.781
							c0.032-0.254,0.089-0.5,0.078-0.751H81.544z"/>
						<path id="XMLID_22_" style="fill:#FFFFFF;" d="M70.818,10.21c-0.164,1.532-0.454,3.084-0.68,4.617l-0.059,0.333h1.304
							c0.466-3.028,0.578-3.618,1.309-3.544c0.117-0.62,0.334-1.162,0.495-1.436c-0.545-0.114-0.85,0.195-1.249,0.781
							c0.032-0.254,0.089-0.5,0.078-0.751H70.818z"/>
						<g id="XMLID_12_">
							<path id="XMLID_13_" style="fill:#FFFFFF;" d="M87.839,14.773c0-0.215,0.174-0.388,0.387-0.388
								c0.214,0,0.387,0.173,0.387,0.388c0,0.213-0.173,0.387-0.387,0.387C88.013,15.161,87.839,14.987,87.839,14.773z
								 M88.226,15.068c0.163,0,0.295-0.132,0.295-0.294c0-0.163-0.132-0.295-0.295-0.295c-0.163,0-0.294,0.132-0.294,0.295
								C87.932,14.936,88.063,15.068,88.226,15.068z M88.174,14.943h-0.079v-0.34h0.144c0.03,0,0.06,0.001,0.087,0.017
								c0.028,0.018,0.044,0.051,0.044,0.085c0,0.039-0.022,0.075-0.059,0.088l0.063,0.15h-0.088l-0.052-0.134h-0.058V14.943z
								 M88.174,14.75h0.044c0.016,0,0.034,0.002,0.048-0.007c0.013-0.008,0.02-0.024,0.02-0.039c0-0.013-0.008-0.028-0.019-0.035
								c-0.014-0.008-0.036-0.005-0.051-0.005h-0.042V14.75z"/>
						</g>
					</g>
				</g>
			</g>
		</g>
	</g>
</g>
<g id="Layer_1">
</g>
</svg>
