<?xml version="1.0" encoding="iso-8859-1"?>
<!-- Generator: Adobe Illustrator 19.0.0, SVG Export Plug-In . SVG Version: 6.00 Build 0)  -->
<svg version="1.1" xmlns="http://www.w3.org/2000/svg" xmlns:xlink="http://www.w3.org/1999/xlink" x="0px" y="0px"
	 viewBox="0 0 89.709 16.484" style="enable-background:new 0 0 89.709 16.484;" xml:space="preserve">
<g id="safety_play">
	<g id="safetypay">
		<path id="XMLID_695_" style="fill:#2C5C9F;" d="M49.907,0c2.349,0.099,4.592,1.133,6.117,2.931
			c1.272,1.481,1.962,3.367,1.968,5.32c-0.758-0.014-1.514-0.014-2.27,0.001c-0.026-1.665-0.713-3.256-1.944-4.381
			c-1.059-0.987-2.421-1.51-3.855-1.607C49.898,1.51,49.901,0.755,49.907,0z M47.997,4.855c1.447,1.127,2.891,2.26,4.344,3.38
			l-0.059,0.041c-1.427-0.064-2.859-0.03-4.287-0.026C47.995,7.118,47.991,5.987,47.997,4.855z"/>
		<path id="XMLID_692_" style="fill:#1CA0CB;" d="M47.994,8.25c1.429-0.004,2.86-0.038,4.287,0.026
			c-1.42,1.129-2.857,2.233-4.283,3.351C47.991,10.501,47.995,9.376,47.994,8.25z M55.721,8.253c0.756-0.016,1.513-0.016,2.27-0.001
			c0,2.467-1.148,4.833-3.073,6.372c-1.421,1.158-3.189,1.771-5.013,1.86c-0.001-0.753-0.001-1.507,0-2.26
			c0.984-0.093,1.927-0.309,2.785-0.814C54.537,12.357,55.69,10.378,55.721,8.253z"/>
		<path id="XMLID_686_" style="fill:#1CA0CB;" d="M80.481,3.457c0.597,0,1.194,0,1.789,0.001c0.414,2.063,0.824,4.126,1.239,6.19
			c0.083,0.406,0.129,0.816,0.175,1.226c1.298-2.499,2.715-4.941,4.066-7.412c0.653-0.006,1.305-0.006,1.959-0.001
			c-2.163,3.64-4.323,7.283-6.487,10.925c-0.594,0.992-1.429,1.801-2.596,2.039c-0.866,0.17-1.642-0.101-2.383-0.526
			c0.258-0.409,0.52-0.814,0.79-1.216c0.536,0.245,1.046,0.407,1.626,0.172c0.962-0.372,1.384-1.427,1.927-2.227
			C81.906,9.566,81.159,6.519,80.481,3.457z M70.518,6.427c-0.138-1.033-0.614-2.008-1.546-2.538
			c-1.139-0.632-2.691-0.568-3.784,0.139c-0.469,0.294-0.814,0.688-1.163,1.11c0.172-0.549,0.285-1.11,0.377-1.676
			c-0.524-0.001-1.056-0.033-1.578,0.016c-0.045,0.122-0.081,0.248-0.109,0.377c-0.806,4.203-1.578,8.414-2.404,12.613
			c0.567,0,1.133,0.003,1.701,0.009c0.319-1.701,0.674-3.396,0.945-5.104c0.367,0.664,0.868,1.176,1.616,1.385
			c1.195,0.432,2.596,0.046,3.608-0.661C69.96,10.856,70.783,8.537,70.518,6.427z M68.755,7.883c-0.12,1.362-0.946,2.727-2.234,3.27
			c-0.8,0.336-1.817,0.329-2.45-0.333c-0.661-0.713-0.677-1.737-0.517-2.643c0.269-1.34,1.149-2.695,2.512-3.106
			c0.814-0.232,1.733-0.085,2.27,0.616C68.829,6.326,68.804,7.117,68.755,7.883z M78.9,4.684c-0.424-0.714-1.237-1.074-2.033-1.178
			c-1.46-0.191-2.869,0.191-4.147,0.884c0.149,0.461,0.304,0.92,0.456,1.379c0.945-0.503,1.866-0.907,2.966-0.832
			c0.471,0.036,0.919,0.185,1.172,0.613c0.261,0.475,0.154,0.994,0.112,1.508c-1.694-0.017-3.734,0.148-5.171,1.14
			c-1.139,0.748-1.704,2.428-0.933,3.625c0.653,0.975,2.143,1.332,3.221,0.977c0.964-0.258,1.713-0.901,2.267-1.713
			c-0.178,0.611-0.288,1.234-0.39,1.863c0.533,0.001,1.065,0,1.598-0.007c0.381-1.94,0.755-3.88,1.136-5.82
			C79.303,6.297,79.34,5.435,78.9,4.684z M76.402,10.173c-0.527,0.72-1.363,1.346-2.295,1.307c-0.485,0-0.977-0.191-1.233-0.623
			c-0.307-0.697-0.02-1.466,0.619-1.853c1.074-0.666,2.505-0.649,3.724-0.653C77.047,9.006,76.819,9.631,76.402,10.173z"/>
		<path id="XMLID_677_" style="fill:#2C5C9F;" d="M21.787,0.036c0.004,0.497,0.004,0.994,0.006,1.491
			c-0.678-0.003-1.285-0.026-1.821,0.456c-0.436,0.411-0.474,0.911-0.561,1.471c0.727,0.004,1.456,0.003,2.183,0.003
			c0,0.468,0,0.936,0.001,1.404c-0.717,0.004-1.434,0.006-2.152,0.003c-0.001,2.693-0.001,5.387,0,8.08
			c-0.572,0.001-1.143,0.001-1.714,0.001c-0.001-2.693,0-5.387-0.001-8.082c-0.374,0.001-0.748,0-1.123,0
			c0-0.469,0-0.937,0.001-1.407c0.368,0,0.736,0,1.105,0c0.029-0.955,0.18-1.852,0.884-2.553C19.45,0.075,20.654-0.048,21.787,0.036
			z M32.711,0.014c0.559-0.001,1.117-0.001,1.676,0c0,1.146,0,2.294,0.001,3.44c0.724,0.004,1.45,0.004,2.175,0.001
			c0.001,0.469,0.001,0.939,0.001,1.408c-0.726,0-1.45,0-2.176,0.004c0.001,1.487-0.006,2.975,0,4.461
			c0.012,0.643,0.135,1.256,0.666,1.672c0.513,0.387,1.062,0.377,1.675,0.381c0,0.517,0,1.036-0.01,1.553
			c-1.023,0.058-2.291-0.093-3.088-0.804c-0.735-0.651-0.961-1.563-0.984-2.512c-0.009-1.585,0.003-3.17-0.001-4.754
			c-0.39,0-0.778-0.001-1.168-0.001c0-0.468,0-0.937,0-1.405c0.41,0,0.822-0.003,1.232-0.004C32.71,2.308,32.711,1.162,32.711,0.014
			z M4.277,3.508c0.827,0.085,1.571,0.427,2.228,0.926c-0.229,0.44-0.462,0.878-0.688,1.318c-0.871-0.62-1.965-1.005-3.021-0.653
			C2.23,5.29,1.875,5.936,2.198,6.485C2.476,6.905,3.07,7.139,3.519,7.33c0.923,0.375,2.026,0.727,2.692,1.51
			c0.723,0.858,0.678,2.126-0.019,2.983c-0.635,0.784-1.675,1.071-2.643,1.13C2.237,12.95,0.99,12.497,0,11.629
			c0.278-0.417,0.561-0.832,0.842-1.247c0.781,0.642,1.678,1.074,2.709,1.048c0.577-0.045,1.242-0.304,1.375-0.935
			c0.103-0.482-0.206-0.843-0.595-1.074C3.277,8.796,1.943,8.582,0.994,7.685c-0.945-0.852-0.91-2.504,0.022-3.351
			C1.886,3.534,3.144,3.373,4.277,3.508z M36.804,3.46c0.655-0.004,1.311-0.003,1.968-0.001c0.656,1.689,1.3,3.383,1.955,5.074
			c0.278,0.701,0.54,1.408,0.756,2.133c0.149-0.532,0.312-1.061,0.509-1.576c0.703-1.876,1.387-3.758,2.094-5.632
			c0.63,0,1.259,0,1.888,0.003c-1.326,3.328-2.647,6.656-3.968,9.986c-0.271,0.674-0.488,1.372-0.964,1.934
			c-0.652,0.79-1.71,1.213-2.727,1.062c-0.506-0.065-0.926-0.285-1.372-0.517c0.206-0.438,0.41-0.878,0.613-1.317
			c0.545,0.265,1.03,0.506,1.636,0.233c0.885-0.397,1.114-1.421,1.501-2.218c-1.224-2.924-2.476-5.838-3.713-8.757
			C36.92,3.731,36.862,3.595,36.804,3.46z M30.406,8.438c0.107-1.091,0.026-2.157-0.522-3.128c-0.471-0.853-1.265-1.466-2.208-1.71
			c-1.29-0.307-2.73-0.099-3.819,0.682c-1.487,1.045-2.069,3.024-1.769,4.761c0.184,1.256,0.898,2.415,1.968,3.106
			c0.775,0.519,1.753,0.755,2.676,0.804c1.311-0.019,2.575-0.469,3.596-1.297c-0.239-0.423-0.478-0.848-0.714-1.274
			c-0.581,0.426-1.184,0.79-1.897,0.946c-1.213,0.309-2.688-0.11-3.389-1.192c-0.351-0.514-0.467-1.091-0.545-1.698
			C25.991,8.435,28.198,8.44,30.406,8.438z M24.534,5.684c0.814-0.953,2.57-1.171,3.486-0.256c0.493,0.477,0.577,1.061,0.697,1.702
			c-1.626,0.009-3.253,0.001-4.88,0.006C24.005,6.603,24.143,6.106,24.534,5.684z M15.163,7.155
			c-0.003-0.837-0.101-1.631-0.571-2.346c-0.423-0.645-1.091-1.036-1.828-1.217c-1.584-0.343-3.243,0.019-4.576,0.93
			c0.239,0.423,0.478,0.845,0.719,1.266c0.733-0.433,1.452-0.8,2.321-0.846c0.646-0.033,1.336,0.062,1.781,0.58
			c0.381,0.467,0.383,0.972,0.429,1.543c-1.56,0-3.469,0.054-4.796,0.985c-1.317,0.898-1.434,2.927-0.3,4.018
			c0.911,0.849,2.372,1.117,3.525,0.645c0.753-0.272,1.279-0.83,1.675-1.508c-0.017,0.578-0.014,1.158-0.013,1.737
			c0.545,0.004,1.088,0.004,1.631,0.004C15.161,11.014,15.157,9.084,15.163,7.155z M12.356,11.038
			c-0.727,0.636-1.979,0.697-2.666-0.028c-0.564-0.614-0.445-1.639,0.283-2.069c0.991-0.613,2.378-0.556,3.499-0.555
			C13.44,9.406,13.157,10.361,12.356,11.038z"/>
	</g>
</g>
<g id="Layer_1">
</g>
</svg>
