<?xml version="1.0" encoding="iso-8859-1"?>
<!-- Generator: Adobe Illustrator 19.0.0, SVG Export Plug-In . SVG Version: 6.00 Build 0)  -->
<svg version="1.1" xmlns="http://www.w3.org/2000/svg" xmlns:xlink="http://www.w3.org/1999/xlink" x="0px" y="0px"
	 viewBox="0 0 90.123 19.867" style="enable-background:new 0 0 90.123 19.867;" xml:space="preserve">
<g id="upay">
	<g id="upaycard">
		<path id="XMLID_1303_" style="fill:#46A2DA;" d="M0.017,0.07c0.92,0,1.837,0,2.755,0c0.031,2.496,0.061,10.238,0.061,10.238
			c-0.005,1.332,0,2.537,3.293,2.57c3.173,0.032,3.276-1.958,3.267-2.719C9.366,6.797,9.389,3.438,9.373,0.074
			c0.955-0.007,1.911-0.009,2.864-0.012c0.009,3.444,0,6.889,0.014,10.333c-0.014,1.121-0.021,2.323-0.685,3.283
			c-0.687,1.022-1.887,1.422-3.06,1.536c-1.496,0.109-3.013,0.097-4.511,0.021c-1.199-0.083-2.437-0.396-3.205-1.394
			c-0.775-0.955-0.77-2.036-0.789-3.21C0.019,7.112,0.002,3.59,0.017,0.07z"/>
		<path id="XMLID_1501_" style="fill:#111111;" d="M55.443,0.001c1.406,0.052,2.821-0.232,3.973,0.744
			c1.154,1.003,1.157,2.664,1.162,4.07c-0.562,0.002-1.124,0.005-1.683,0.009c-0.076-0.849,0.059-2.117-0.583-2.762
			c-0.588-0.619-1.61-0.555-2.394-0.571c-1.223,0.033-2.636-0.071-3.793,0.346c-0.73,0.239-1.209,0.932-1.332,1.671
			c-0.218,1.318-0.102,2.707-0.128,4.042c0.026,1.503-0.078,3.129,0.284,4.594c0.225,0.908,0.939,1.515,1.87,1.6
			c1.185,0.092,2.387,0.047,3.575,0.031c0.825-0.04,1.783-0.097,2.314-0.832c0.476-0.806,0.358-1.986,0.384-2.897
			c0.559,0.002,1.119,0.002,1.678,0.002c-0.024,1.271,0.154,2.769-0.626,3.862c-0.581,0.936-1.849,1.254-2.871,1.354
			c-1.401,0.073-2.807,0.043-4.208,0.043c-1.135,0.007-2.349-0.46-3.065-1.365c-0.813-0.929-1.024-2.354-1.036-3.544
			c0.007-1.977-0.012-3.956,0.012-5.933c0.059-1.368,0.339-2.688,1.493-3.551C51.952-0.174,53.708,0.046,55.443,0.001z
			 M26.109,4.237c-0.092-1.06-0.344-2.401-1.152-3.16c-1.197-1.005-2.875-1.012-4.357-1.012c-2.081,0.033-4.174-0.05-6.251,0.04
			c-0.092,5.021-0.021,10.086-0.033,15.112c0.953,0,1.903-0.005,2.856,0c0.005-1.64-0.005-3.281,0-4.921
			c1.754-0.021,3.52,0.062,5.27-0.064c1.166-0.119,2.288-0.341,2.973-1.389C26.177,7.501,26.199,5.735,26.109,4.237z M23.117,6.802
			c-0.209,0.685-0.908,0.924-1.56,0.972c-1.46,0.083-2.928,0.009-4.39,0.043c0.014-1.735,0-3.468,0.007-5.203
			c1.538,0.036,3.086-0.047,4.62,0.047c0.668,0.007,1.221,0.429,1.349,1.093C23.321,4.735,23.333,5.828,23.117,6.802z M37.814,4.619
			c0.846-0.069,1.704-0.031,2.553-0.033c0.887,3.013,1.754,6.026,2.622,9.043c0.671-3.01,1.373-6.016,1.998-9.034
			c0.868-0.012,1.735-0.012,2.603-0.007c-0.576,1.991-0.977,4.023-1.493,6.031c-0.593,2.228-1.015,4.487-1.688,6.708
			c-0.277,0.906-0.756,1.761-1.638,2.19c-0.955,0.448-1.873,0.341-2.894,0.332c-0.014-0.638-0.019-1.275-0.028-1.913
			c0.54-0.078,1.247,0.024,1.636-0.408c0.647-0.574,0.723-1.508,0.934-2.299c-0.403-0.009-0.808-0.019-1.211-0.024
			C40.071,11.688,38.904,8.146,37.814,4.619z M72.601,4.588c0.517,0,1.036-0.002,1.553-0.002c-0.04,0.429-0.085,0.856-0.13,1.282
			c0.583-0.626,1.119-1.183,2.017-1.294c1-0.09,2.363-0.206,3.117,0.595c0.77,0.699,0.737,2.088,0.806,3.044
			c-0.519,0.005-1.038,0.005-1.557,0c-0.033-0.74,0.088-1.407-0.459-1.913c-0.64-0.591-1.487-0.623-2.35-0.348
			c-0.742,0.19-1.24,0.865-1.354,1.6c-0.166,1.164-0.052,2.382-0.066,3.556c-0.014,1.37-0.019,2.74-0.019,4.113
			c-0.517-0.002-1.036-0.002-1.553-0.002C72.596,11.673,72.603,8.132,72.601,4.588z M88.559,0.063c0.017,1.915-0.078,3.835,0,5.748
			c-0.484-0.493-0.87-0.979-1.581-1.15c-0.927-0.197-1.918-0.168-2.859-0.1c-1.178,0.092-2.259,0.863-2.627,2.003
			c-0.384,1.204-0.353,2.579-0.353,3.831c0.038,1.083,0.054,2.389,0.586,3.359c0.531,1.041,1.759,1.51,2.868,1.546
			c0.853,0.019,1.885,0.073,2.674-0.303c0.557-0.239,0.879-0.668,1.292-1.093c-0.024,0.436,0.017,0.875,0,1.311
			c0.54,0.002,1.019,0.005,1.56,0.005c0.002-5.049,0.005-10.096,0.005-15.145C89.588,0.07,89.095,0.065,88.559,0.063z
			 M88.457,11.593c-0.054,0.853-0.332,1.799-1.183,2.174c-0.984,0.353-2.288,0.36-3.274,0.017c-0.744-0.258-1.043-1.242-1.131-1.946
			c-0.133-1.299-0.14-2.705-0.002-4.004c0.104-0.619,0.296-1.429,0.896-1.752c0.962-0.348,2.181-0.36,3.167-0.109
			c0.865,0.211,1.356,0.958,1.47,1.804C88.561,9.035,88.528,10.329,88.457,11.593z M70.328,5.467
			c-0.536-0.59-1.287-0.861-2.072-0.898c-1.188-0.069-2.394-0.085-3.582,0.014c-0.763,0.057-1.477,0.474-1.889,1.119
			c-0.292,0.559-0.327,1.294-0.41,1.911c0.574,0.007,1.147,0.007,1.721,0.005c0.007-0.348,0.023-0.724,0.167-1.041
			c0.43-0.943,1.312-0.796,2.322-0.774c0.934,0.033,2.231-0.066,2.709,0.939c0.339,0.927,0.14,2.072,0.23,3.053
			c-1.019-1.093-2.273-0.972-3.651-1.003c-0.958,0.024-2.235,0.059-2.975,0.761c-0.711,0.732-0.834,2.022-0.763,2.987
			c0.069,0.834,0.377,1.894,1.19,2.29c1.135,0.628,2.726,0.491,3.985,0.455c0.91-0.019,1.581-0.493,2.212-1.102
			c-0.014,0.344-0.031,0.687-0.043,1.031c0.519,0,1.041,0.005,1.562,0.007c0.012-2.48,0.002-4.959,0.007-7.441
			C71.055,6.937,70.875,6.129,70.328,5.467z M69.249,13.053c-0.394,0.794-1.391,0.906-2.178,0.962
			c-0.825,0.012-1.88,0.114-2.631-0.284c-0.626-0.375-0.671-1.259-0.685-1.908c0.012-0.569,0.175-1.354,0.792-1.553
			c1.154-0.299,2.525-0.209,3.705-0.076C69.522,10.46,69.68,12.06,69.249,13.053z M36.076,5.55
			c-0.519-0.645-1.394-0.917-2.193-0.974c-1.183-0.081-2.397-0.083-3.582-0.002c-0.811,0.033-1.607,0.436-2.114,1.074
			c-0.37,0.571-0.441,1.384-0.574,2.041c0.825,0.019,1.647,0.017,2.47,0.017c0.178-0.434,0.235-1.128,0.751-1.28
			c0.645-0.247,1.425-0.206,2.103-0.147c0.51,0.066,1.036,0.242,1.228,0.77c0.171,0.91,0.09,1.873,0.159,2.795
			c-1.007-1.282-2.411-1.207-3.885-1.143c-0.901,0.102-2.065,0.28-2.596,1.112c-0.607,0.837-0.552,1.738-0.524,2.724
			c0.012,0.974,0.548,2.072,1.501,2.432c1.012,0.462,2.321,0.344,3.409,0.313c1-0.064,1.574-0.538,2.133-1.339
			c-0.028,0.427,0.026,0.853,0,1.278c0.823,0,1.643,0,2.465-0.005c0.002-2.242,0.002-4.483,0.005-6.723
			C36.84,7.482,36.681,6.385,36.076,5.55z M34.152,12.799c-0.339,0.742-1.24,0.735-1.937,0.775
			c-0.607-0.017-1.403,0.045-1.932-0.282c-0.73-0.668-0.761-1.739-0.289-2.397c1.005-0.724,2.427-0.575,3.366-0.334
			C34.384,10.815,34.417,11.97,34.152,12.799z"/>
	</g>
</g>
<g id="Layer_1">
</g>
</svg>
