<?xml version="1.0" encoding="iso-8859-1"?>
<!-- Generator: Adobe Illustrator 19.0.0, SVG Export Plug-In . SVG Version: 6.00 Build 0)  -->
<svg version="1.1" xmlns="http://www.w3.org/2000/svg" xmlns:xlink="http://www.w3.org/1999/xlink" x="0px" y="0px"
	 viewBox="0 0 88.595 55.054" style="enable-background:new 0 0 88.595 55.054;" xml:space="preserve">
<g id="bank_trafer">
	<g id="XMLID_442_">
		<g id="XMLID_443_">
			<path id="XMLID_52_" style="fill:#E6E7E8;" d="M83.382,0.865c2.397,0,4.348,1.95,4.348,4.348v44.628
				c0,2.397-1.95,4.348-4.348,4.348H5.213c-2.397,0-4.348-1.95-4.348-4.348V5.213c0-2.397,1.95-4.348,4.348-4.348L83.382,0.865
				 M83.382,0H5.213C2.334,0,0,2.334,0,5.213v44.628c0,2.879,2.334,5.213,5.213,5.213h78.169c2.879,0,5.213-2.334,5.213-5.213V5.213
				C88.595,2.334,86.261,0,83.382,0L83.382,0z"/>
		</g>
		<g id="XMLID_444_">
			<g id="XMLID_447_">
				<path id="XMLID_448_" style="fill:#E6E7E8;" d="M10.138,40.668V32.78H7.824v-2.441h7.443v2.441h-2.314v7.888H10.138z"/>
				<path id="XMLID_47_" style="fill:#E6E7E8;" d="M16.643,40.668V30.339h2.942c1.152,0,1.955,0.053,2.409,0.159
					c0.454,0.106,0.845,0.283,1.175,0.533c0.372,0.282,0.657,0.642,0.857,1.079c0.2,0.437,0.3,0.92,0.3,1.446
					c0,0.8-0.196,1.45-0.589,1.951c-0.393,0.501-0.966,0.834-1.718,0.999l2.815,4.163h-3.182l-2.371-4.043v4.043H16.643z
					 M19.282,35.221h0.522c0.607,0,1.05-0.104,1.33-0.311c0.28-0.207,0.42-0.531,0.42-0.974c0-0.517-0.13-0.885-0.392-1.104
					c-0.261-0.219-0.7-0.328-1.316-0.328h-0.564L19.282,35.221L19.282,35.221z"/>
				<path id="XMLID_44_" style="fill:#E6E7E8;" d="M24.693,40.668l3.563-10.329h3.528l3.57,10.329h-2.801l-0.522-1.849h-4
					l-0.536,1.849H24.693z M28.637,36.808h2.801l-1.051-3.408c-0.033-0.103-0.078-0.27-0.134-0.501
					c-0.056-0.23-0.129-0.527-0.219-0.889c-0.061,0.254-0.121,0.496-0.18,0.727c-0.059,0.23-0.119,0.451-0.18,0.663L28.637,36.808z"
					/>
				<path id="XMLID_449_" style="fill:#E6E7E8;" d="M36.341,40.668V30.339h2.716l3.902,5.312c0.075,0.108,0.198,0.326,0.37,0.653
					c0.172,0.327,0.361,0.716,0.568,1.168c-0.056-0.428-0.098-0.809-0.123-1.143c-0.026-0.334-0.039-0.63-0.039-0.889v-5.101h2.702
					v10.329h-2.702l-3.902-5.334c-0.08-0.108-0.206-0.326-0.377-0.653c-0.172-0.327-0.359-0.711-0.561-1.154
					c0.056,0.433,0.097,0.816,0.123,1.15c0.026,0.334,0.039,0.631,0.039,0.889v5.101L36.341,40.668L36.341,40.668z"/>
				<path id="XMLID_454_" style="fill:#E6E7E8;" d="M49.111,37.33c0.419,0.475,0.831,0.83,1.238,1.065
					c0.407,0.235,0.812,0.353,1.217,0.353c0.376,0,0.685-0.101,0.928-0.303c0.242-0.202,0.363-0.459,0.363-0.769
					c0-0.343-0.105-0.608-0.314-0.794c-0.21-0.186-0.683-0.377-1.422-0.575c-1.011-0.273-1.726-0.628-2.145-1.065
					c-0.419-0.437-0.628-1.037-0.628-1.799c0-0.988,0.33-1.793,0.991-2.416c0.661-0.623,1.518-0.935,2.571-0.935
					c0.569,0,1.109,0.076,1.619,0.229c0.51,0.153,0.993,0.384,1.45,0.695l-0.882,2.025c-0.32-0.273-0.648-0.479-0.984-0.617
					c-0.336-0.139-0.669-0.208-0.998-0.208c-0.339,0-0.614,0.081-0.825,0.243c-0.212,0.162-0.318,0.37-0.318,0.625
					c0,0.259,0.093,0.465,0.279,0.621c0.186,0.155,0.544,0.303,1.076,0.444l0.127,0.035c1.147,0.31,1.902,0.652,2.265,1.023
					c0.245,0.254,0.43,0.559,0.557,0.914c0.127,0.355,0.191,0.749,0.191,1.182c0,1.096-0.36,1.976-1.079,2.642
					c-0.72,0.666-1.679,0.998-2.879,0.998c-0.72,0-1.375-0.123-1.965-0.367c-0.59-0.245-1.158-0.628-1.704-1.15L49.111,37.33z"/>
				<path id="XMLID_455_" style="fill:#E6E7E8;" d="M57.048,40.668V30.339h6.329v2.265h-3.584v1.792h3.379v2.215h-3.379v4.057
					L57.048,40.668L57.048,40.668z"/>
				<path id="XMLID_456_" style="fill:#E6E7E8;" d="M64.908,40.668V30.339h6.328v2.265h-3.584v1.792h3.38v2.215h-3.38v1.742h3.584
					v2.314L64.908,40.668L64.908,40.668z"/>
				<path id="XMLID_37_" style="fill:#E6E7E8;" d="M73.099,40.668V30.339h2.942c1.152,0,1.955,0.053,2.409,0.159
					c0.454,0.106,0.846,0.283,1.175,0.533c0.372,0.282,0.657,0.642,0.857,1.079c0.2,0.437,0.3,0.92,0.3,1.446
					c0,0.8-0.197,1.45-0.589,1.951c-0.393,0.501-0.965,0.834-1.718,0.999l2.815,4.163h-3.182l-2.371-4.043v4.043H73.099z
					 M75.737,35.221h0.522c0.607,0,1.05-0.104,1.33-0.311c0.28-0.207,0.42-0.531,0.42-0.974c0-0.517-0.13-0.885-0.392-1.104
					c-0.261-0.219-0.7-0.328-1.316-0.328h-0.565V35.221z"/>
			</g>
			<g id="XMLID_457_">
				<path id="XMLID_32_" style="fill:#BCBEC0;" d="M25.009,28.466V14.694h3.772c1.555,0,2.642,0.05,3.259,0.151
					c0.618,0.1,1.149,0.273,1.595,0.517c0.508,0.282,0.895,0.66,1.162,1.134c0.267,0.473,0.4,1.021,0.4,1.641
					c0,0.784-0.199,1.406-0.597,1.867c-0.398,0.461-1.033,0.811-1.905,1.049c0.978,0.075,1.743,0.419,2.295,1.03
					c0.552,0.612,0.828,1.428,0.828,2.45c0,0.734-0.155,1.38-0.466,1.938c-0.31,0.558-0.754,0.991-1.331,1.298
					c-0.47,0.251-1.05,0.429-1.74,0.536c-0.69,0.107-1.819,0.16-3.386,0.16L25.009,28.466L25.009,28.466z M28.49,20.197h0.753
					c0.928,0,1.565-0.102,1.91-0.306c0.345-0.204,0.517-0.557,0.517-1.058c0-0.52-0.161-0.886-0.484-1.096
					c-0.323-0.21-0.952-0.315-1.886-0.315H28.49L28.49,20.197L28.49,20.197z M28.49,25.653h1.317c0.89,0,1.521-0.111,1.891-0.334
					c0.37-0.223,0.555-0.594,0.555-1.115c0-0.577-0.169-0.98-0.508-1.209c-0.339-0.229-0.966-0.343-1.881-0.343H28.49L28.49,25.653
					L28.49,25.653z"/>
				<path id="XMLID_29_" style="fill:#BCBEC0;" d="M36.458,28.466l4.751-13.772h4.703l4.76,13.772h-3.734l-0.696-2.465h-5.334
					l-0.715,2.465H36.458z M41.716,23.32h3.735l-1.402-4.544c-0.044-0.138-0.103-0.36-0.179-0.668
					c-0.075-0.307-0.173-0.702-0.292-1.185c-0.082,0.339-0.161,0.662-0.24,0.969c-0.079,0.307-0.159,0.602-0.24,0.884L41.716,23.32z
					"/>
				<path id="XMLID_460_" style="fill:#BCBEC0;" d="M51.989,28.466V14.694h3.622l5.202,7.083c0.1,0.144,0.265,0.434,0.494,0.87
					c0.229,0.436,0.481,0.955,0.757,1.557c-0.075-0.571-0.13-1.079-0.165-1.524c-0.034-0.445-0.052-0.84-0.052-1.185v-6.801h3.603
					v13.772h-3.603l-5.202-7.112c-0.107-0.144-0.274-0.434-0.503-0.87c-0.229-0.436-0.478-0.948-0.748-1.538
					c0.075,0.577,0.13,1.088,0.165,1.533c0.034,0.445,0.052,0.84,0.052,1.185v6.801H51.989z"/>
				<path id="XMLID_466_" style="fill:#BCBEC0;" d="M68.403,28.466V14.694h3.716v6.256l4.355-6.256h4.374l-5.089,6.716l5.531,7.055
					h-4.685l-4.487-6.18v6.18L68.403,28.466L68.403,28.466z"/>
			</g>
			<rect id="XMLID_467_" x="6.746" y="14.659" style="fill:#BCBEC0;" width="15.252" height="2.729"/>
			<rect id="XMLID_468_" x="6.746" y="19.957" style="fill:#BCBEC0;" width="15.252" height="2.729"/>
			<rect id="XMLID_469_" x="6.746" y="25.737" style="fill:#BCBEC0;" width="15.252" height="2.729"/>
		</g>
	</g>
</g>
<g id="Layer_1">
</g>
</svg>
