<?xml version="1.0" encoding="iso-8859-1"?>
<!-- Generator: Adobe Illustrator 19.0.0, SVG Export Plug-In . SVG Version: 6.00 Build 0)  -->
<svg version="1.1" xmlns="http://www.w3.org/2000/svg" xmlns:xlink="http://www.w3.org/1999/xlink" x="0px" y="0px"
	 viewBox="0 0 88.671 20" style="enable-background:new 0 0 88.671 20;" xml:space="preserve">
<g id="cashlib">
	<g id="XMLID_550_">
		<g id="XMLID_555_">
			<path id="XMLID_556_" style="fill:#E6E7E8;" d="M18.062,4.099l-2.484,2.36c-1.714-1.814-3.602-2.683-5.689-2.683
				c-1.814,0-3.28,0.596-4.472,1.839c-1.193,1.193-1.839,2.733-1.839,4.522c0,1.242,0.273,2.36,0.82,3.329s1.292,1.714,2.311,2.261
				c0.969,0.547,2.087,0.82,3.28,0.82c1.019,0,1.988-0.174,2.807-0.547c0.82-0.373,1.814-1.068,2.807-2.087l2.41,2.484
				c-1.391,1.342-2.683,2.261-3.925,2.807C12.845,19.702,11.453,20,9.888,20c-2.907,0-5.267-0.919-7.106-2.783S0,13.019,0,10.161
				c0-1.839,0.422-3.503,1.242-4.944S3.28,2.634,4.845,1.764s3.23-1.342,5.068-1.342c1.516,0,3.006,0.323,4.422,0.969
				C15.801,1.988,17.043,2.907,18.062,4.099z"/>
			<path id="XMLID_32_" style="fill:#E6E7E8;" d="M24.994,0.82h3.602l7.155,18.658H32.05l-1.466-3.826h-7.627l-1.516,3.826h-3.702
				L24.994,0.82z M26.807,5.764l-2.484,6.41h4.994L26.807,5.764z"/>
			<path id="XMLID_557_" style="fill:#E6E7E8;" d="M46.435,3.354l-2.634,2.311c-0.919-1.292-1.839-1.938-2.807-1.938
				c-0.472,0-0.82,0.149-1.143,0.373c-0.273,0.224-0.472,0.497-0.472,0.82c0,0.323,0.099,0.596,0.323,0.87
				c0.273,0.373,1.143,1.143,2.584,2.41c1.342,1.143,2.161,1.839,2.46,2.112c0.745,0.745,1.242,1.441,1.516,2.087
				c0.323,0.646,0.472,1.391,0.472,2.161c0,1.516-0.497,2.783-1.565,3.776c-1.068,1.019-2.46,1.466-4.149,1.466
				c-1.342,0-2.484-0.323-3.453-0.969c-0.969-0.646-1.839-1.665-2.534-3.056l3.006-1.789c0.87,1.665,1.938,2.484,3.106,2.484
				c0.596,0,1.118-0.174,1.516-0.547c0.422-0.373,0.596-0.795,0.596-1.242c0-0.422-0.149-0.82-0.472-1.242
				c-0.323-0.422-1.019-1.068-2.087-1.938c-2.037-1.665-3.329-2.957-3.925-3.826c-0.596-0.87-0.87-1.814-0.87-2.683
				c0-1.292,0.497-2.41,1.466-3.329c0.969-0.919,2.211-1.391,3.652-1.391c0.919,0,1.814,0.224,2.683,0.646
				C44.522,1.416,45.466,2.211,46.435,3.354z"/>
			<path id="XMLID_560_" style="fill:#E6E7E8;" d="M48.273,0.82h3.602v7.031h6.236V0.82h3.602v18.658h-3.602v-8.174h-6.236v8.174
				h-3.602L48.273,0.82L48.273,0.82z"/>
			<path id="XMLID_561_" style="fill:#BCBEC0;" d="M64.199,0.373h3.453v19.13h-3.453V0.373z"/>
			<path id="XMLID_26_" style="fill:#BCBEC0;" d="M71.404,0C72,0,72.522,0.224,72.969,0.646c0.422,0.472,0.646,0.969,0.646,1.615
				c0,0.596-0.224,1.143-0.646,1.565s-0.919,0.646-1.516,0.646c-0.596,0-1.143-0.224-1.565-0.646
				c-0.422-0.472-0.646-0.969-0.646-1.615c0-0.596,0.224-1.118,0.646-1.565C70.261,0.224,70.807,0,71.404,0z M69.665,5.665h3.453
				v13.814h-3.453V5.665z"/>
			<path id="XMLID_23_" style="fill:#BCBEC0;" d="M77.863,0.373v6.832c0.646-0.646,1.292-1.118,2.037-1.391
				c0.745-0.323,1.516-0.472,2.311-0.472c1.814,0,3.329,0.696,4.571,2.037s1.888,3.106,1.888,5.217c0,2.037-0.646,3.776-1.938,5.168
				c-1.292,1.391-2.857,2.087-4.621,2.087c-0.795,0-1.516-0.149-2.211-0.422c-0.696-0.273-1.391-0.745-2.037-1.391v1.466h-3.429
				V0.373L77.863,0.373L77.863,0.373L77.863,0.373z M81.516,8.547c-1.118,0-1.988,0.373-2.733,1.118
				c-0.745,0.745-1.068,1.714-1.068,2.907c0,1.242,0.373,2.211,1.068,2.957c0.745,0.745,1.615,1.143,2.733,1.143
				c1.068,0,1.938-0.373,2.683-1.143c0.745-0.795,1.068-1.764,1.068-2.957s-0.373-2.161-1.068-2.907
				C83.503,8.894,82.584,8.547,81.516,8.547z"/>
		</g>
	</g>
</g>
<g id="Layer_1">
</g>
</svg>
