<?xml version="1.0" encoding="iso-8859-1"?>
<!-- Generator: Adobe Illustrator 19.0.0, SVG Export Plug-In . SVG Version: 6.00 Build 0)  -->
<svg version="1.1" xmlns="http://www.w3.org/2000/svg" xmlns:xlink="http://www.w3.org/1999/xlink" x="0px" y="0px"
	 viewBox="0 0 90.124 42.035" style="enable-background:new 0 0 90.124 42.035;" xml:space="preserve">
<g id="i_debit">
	<g id="iDebit_1_">
		<path id="XMLID_278_" style="fill:#BCBEC0;" d="M2.975,0.222C4.77-0.377,6.794,0.264,7.898,1.81
			C9.33,3.755,8.81,6.712,6.765,8.016C4.642,9.398,1.664,8.657,0.503,6.391C-0.751,4.026,0.439,1.048,2.975,0.222z M0.937,12.126
			c2.294,0,4.588,0,6.882,0c0,9.91,0,19.82,0,29.73c-2.294,0-4.588,0-6.882,0C0.93,31.946,0.937,22.036,0.937,12.126z"/>
		<path id="XMLID_279_" style="fill:#E6E7E8;" d="M69.615,0.193c2.173-0.67,4.638,0.499,5.365,2.679
			c0.784,2.08-0.207,4.503-2.216,5.429c-2.059,0.962-4.624,0.192-5.699-1.838C65.783,4.054,66.987,0.97,69.615,0.193z M11.253,0.742
			c1.788,0.228,3.512,0.499,5.151,1.304c2.258,1.054,4.096,2.921,5.08,5.208c0.955,2.187,1.183,4.453,1.211,6.811
			c0,4.909-0.007,9.817,0,14.719c-0.021,3.185-0.684,6.576-2.458,9.269c-1.133,1.738-2.878,3.042-4.909,3.534
			c-1.375,0.363-2.786,0.242-4.218,0.256c-0.007-2.515,0-5.03,0-7.545c1.069-0.078,2.194,0.028,3.035-0.762
			c1.069-1.005,1.247-2.422,1.275-3.811c0-5.536-0.007-11.057,0-16.592c-0.007-1.496-0.385-3.142-1.61-4.118
			c-0.812-0.655-1.724-0.734-2.721-0.905c0.955-2.102,1.254-4.289,0.456-6.497C11.446,1.333,11.346,1.041,11.253,0.742z
			 M77.922,3.827c2.266,0,4.531,0,6.804,0c0,2.814,0,5.635,0,8.449c1.795,0.007,3.598,0,5.393,0c0.007,1.824,0.007,3.655,0,5.479
			c-1.795,0-3.598,0-5.393,0c-0.007,4.303,0,8.606-0.007,12.909c0.021,1.211,0.157,2.508,1.126,3.348
			c0.67,0.591,1.496,0.641,2.33,0.812c-0.021,2.344-0.007,4.681-0.007,7.025c-0.705,0.007-1.411,0.021-2.116,0.014
			c-2.087,0.078-4.196-0.955-5.635-2.429c-1.817-1.902-2.501-4.638-2.501-7.203C77.93,22.763,77.915,13.295,77.922,3.827z
			 M67.443,12.126c2.294,0,4.588,0,6.882,0c0,9.91,0.007,19.82,0,29.73c-2.294-0.007-4.588-0.007-6.882,0
			C67.435,31.946,67.435,22.036,67.443,12.126z M42.878,19.714c0.007-1.389-0.114-2.743-0.655-4.032
			c-1.176-3.063-4.574-5.08-7.808-4.98c-1.603-0.014-3.063-0.043-4.531,0.72c-1.916,1.019-3.085,3.006-3.762,4.994
			c-0.62,1.859-0.955,3.833-0.94,5.792c0.007,3.341,0.007,6.683,0,10.024c0,2.016,0.278,3.975,1.282,5.756
			c1.354,2.479,4.203,4.068,7.017,4.025c2.187,0.028,4.153,0.093,5.963-1.325c2.38-1.852,3.391-5.4,3.299-8.307
			c-2.13-0.007-4.253,0.007-6.383-0.014c-0.135,0.99,0.014,2.116-0.926,2.743c-1.297,0.762-3.277-0.071-3.548-1.631
			c-0.242-1.56-0.078-3.199-0.114-4.78c3.697,0,7.402,0,11.1,0C42.878,25.712,42.864,22.713,42.878,19.714z M36.295,23.155
			c-1.46,0-2.914,0-4.374,0c0.028-1.425-0.121-2.914,0.107-4.324c0.306-1.525,2.629-2.287,3.569-0.912
			C36.623,19.265,36.231,21.552,36.295,23.155z M64.002,19.714c0.014-2.059-0.299-4.225-1.325-6.041
			c-0.983-1.753-2.764-2.992-4.802-3.078c-1.952-0.05-3.641,0.734-5.087,1.988c0.036-3.826,0-7.659,0.021-11.484
			c-2.166-0.007-4.332,0-6.497,0c0,13.586,0,27.179,0,40.758c2.166,0,4.332,0,6.497,0c-0.007-0.691-0.014-1.382-0.028-2.073
			c1.09,1.111,2.223,2.066,3.84,2.216c1.567,0.071,3.234,0.135,4.567-0.826c1.888-1.275,2.75-3.94,2.8-6.12
			C64.002,29.944,63.987,24.822,64.002,19.714z M57.426,22.841c0.007,3.028-0.014,6.049,0.014,9.076
			c-0.007,0.62,0.014,1.275-0.121,1.881c-0.313,1.133-1.66,1.959-2.786,1.475c-1.033-0.392-1.496-1.339-1.482-2.408
			c-0.007-4.275-0.007-8.571,0-12.852c-0.021-1.076,0.449-2.009,1.475-2.408c1.232-0.541,2.707,0.499,2.85,1.781
			C57.49,20.526,57.412,21.694,57.426,22.841z"/>
	</g>
</g>
<g id="Layer_1">
</g>
</svg>
