<?xml version="1.0" encoding="iso-8859-1"?>
<!-- Generator: Adobe Illustrator 19.0.0, SVG Export Plug-In . SVG Version: 6.00 Build 0)  -->
<svg version="1.1" xmlns="http://www.w3.org/2000/svg" xmlns:xlink="http://www.w3.org/1999/xlink" x="0px" y="0px"
	 viewBox="0 0 89.563 10.201" style="enable-background:new 0 0 89.563 10.201;" xml:space="preserve">
<g id="instadebit">
	<g id="instadebit_1_">
		<path id="XMLID_240_" style="fill:#BCBEC0;" d="M12.007,0.096c-0.229,1.386-0.451,2.776-0.733,4.151
			C9.865,4.232,8.458,4.253,7.049,4.234c0.283-1.365,0.492-2.742,0.76-4.11C9.206,0.054,10.608,0.114,12.007,0.096z M4.949,5.934
			c-0.26,1.371-0.465,2.751-0.756,4.114C2.794,10.037,1.398,10.066,0,10.06V9.809C0.285,8.52,0.49,7.22,0.725,5.921
			C2.134,5.913,3.542,5.892,4.949,5.934z M6.885,5.928c1.377-0.048,2.759,0.01,4.139-0.023c-0.214,1.353-0.457,2.707-0.711,4.056
			l-0.129,0.058c-1.357,0.071-2.73,0.019-4.091,0.046C6.351,8.699,6.493,7.255,6.885,5.928z"/>
		<path id="XMLID_241_" style="fill:#E6E7E8;" d="M30.327,0.021c1.097-0.023,2.076-0.127,3.048,0.488
			c0.864,0.532,1.184,1.438,1.244,2.412c-0.792,0.023-1.583,0.071-2.375,0.112c-0.168-0.594-0.27-1.107-0.962-1.255
			c-0.688-0.154-1.03,0.185-1.357,0.742c0.6,1.022,2.107,1.18,3.008,1.963c1.209,0.916,1.465,2.58,0.779,3.9
			c-0.503,1.07-1.494,1.631-2.63,1.818h-1.716c-0.779-0.199-1.602-0.413-2.094-1.105c-0.53-0.704-0.652-1.519-0.665-2.377
			c0.814-0.062,1.629-0.112,2.445-0.17c0.056,0.324,0.077,0.677,0.197,0.987c0.247,0.798,1.556,0.871,2.065,0.322
			c0.43-0.38,0.366-1.118-0.145-1.398c-1.066-0.646-2.58-0.985-3.278-2.13c-0.617-1.182-0.31-2.865,0.775-3.682
			C29.139,0.293,29.731,0.04,30.327,0.021z M35.966,0.112c2.626,0.021,5.254,0.017,7.88,0.002c-0.081,0.827-0.253,1.633-0.405,2.447
			c-0.898,0.006-1.795,0.008-2.693-0.004c-0.492,2.441-0.875,4.926-1.367,7.365c-0.702,0.256-1.855,0.044-2.643,0.108
			c0.418-2.491,0.964-4.968,1.307-7.467c-0.848,0.002-1.697,0.002-2.547,0C35.648,1.745,35.775,0.925,35.966,0.112z M60.285,0.133
			c2.304-0.019,4.614-0.015,6.919,0.002c0,0.717-0.002,1.431-0.025,2.148c-1.448,0-2.9-0.039-4.348,0.023
			c0.002,0.488,0,0.974-0.006,1.463c1.35,0.093,2.711,0.021,4.064,0.044c0.017,0.679,0.017,1.359,0.012,2.038
			c-1.357,0.006-2.711-0.01-4.068,0.01c-0.008,0.644,0,1.288,0.042,1.932c1.479-0.025,2.959-0.002,4.44-0.017
			c0.019,0.752,0.021,1.502,0.015,2.254c-2.358,0.002-4.718,0.002-7.076,0C60.274,6.738,60.206,3.422,60.285,0.133z M77.953,0.139
			c0.839-0.052,1.687-0.01,2.528,0.006c-0.015,0.814-0.015,1.631-0.01,2.445c-0.866,0.002-1.733,0.002-2.599,0
			C77.918,1.818,77.766,0.873,77.953,0.139z M81.761,0.143c2.587-0.054,5.186,0.01,7.775-0.031c0.033,0.827,0.029,1.652,0.023,2.479
			c-0.871,0-1.737-0.017-2.607,0.033c0.033,2.46-0.012,4.92,0.025,7.38c-0.875,0.046-1.749,0.031-2.624,0.023
			c-0.004-2.481,0.01-4.961-0.01-7.44c-0.86,0.004-1.72,0.002-2.58,0.017C81.745,1.785,81.705,0.96,81.761,0.143z M13.914,0.131
			c0.879-0.008,1.758-0.008,2.637-0.006c-0.578,3.303-1.182,6.607-1.791,9.906c-0.877,0.002-1.754,0.002-2.63,0.002
			C12.703,6.73,13.311,3.43,13.914,0.131z M18.327,0.164c0.829-0.06,1.658-0.042,2.489-0.037c0.573,1.596,1.157,3.187,1.71,4.791
			c0.093,0.283,0.216,0.528,0.391,0.767c0.328-1.849,0.675-3.696,1.003-5.545c0.827-0.023,1.656-0.021,2.485-0.004
			c-0.648,3.295-1.174,6.615-1.841,9.906c-0.825-0.008-1.648,0.006-2.47-0.039c-0.652-1.891-1.309-3.79-2.038-5.651
			c-0.301,1.891-0.708,3.763-0.993,5.653c-0.827,0.042-1.656,0.033-2.485,0.025C17.138,6.738,17.812,3.461,18.327,0.164z
			 M58.062,1.587c-0.513-0.848-1.39-1.363-2.379-1.423c-1.486-0.089-2.981-0.017-4.469-0.039c0.002,3.303-0.004,6.607,0.004,9.908
			c1.28-0.006,2.56,0.01,3.839-0.002c0.902-0.023,1.839-0.197,2.501-0.858c0.866-0.825,1.234-1.951,1.294-3.125
			C58.942,4.544,58.899,2.896,58.062,1.587z M55.845,7.245c-0.424,0.64-1.367,0.461-2.034,0.526c0.006-1.81-0.012-3.617,0.012-5.425
			c0.675,0.056,1.421-0.025,1.928,0.517c0.432,0.482,0.482,1.317,0.517,1.936C56.279,5.566,56.298,6.588,55.845,7.245z M49.55,0.127
			c-1.18,0.017-2.368-0.044-3.547,0.019c-0.216,0.341-0.374,0.725-0.544,1.091c-1.321,2.95-2.676,5.884-3.991,8.834
			c0.806-0.008,1.61-0.015,2.416-0.006c0.258-0.544,0.513-1.089,0.775-1.629c0.806,0.006,1.61,0.006,2.416-0.023
			c0.044,0.544,0.056,1.087,0.054,1.633c0.8-0.004,1.598-0.004,2.396,0.015C49.587,6.75,49.535,3.437,49.55,0.127z M47.115,6.248
			c-0.482,0.004-0.964,0.004-1.446,0.006c0.457-1.062,0.927-2.123,1.448-3.154C47.11,4.149,47.106,5.198,47.115,6.248z
			 M77.888,3.806c0.854,0.01,1.706,0.01,2.56-0.004c0.048,2.076,0.01,4.153,0.021,6.231c-0.866,0-1.731,0-2.595-0.002
			C77.88,7.957,77.853,5.88,77.888,3.806z M76.102,5.774C75.8,5.246,75.31,5.011,74.805,4.723c1.606-0.673,1.648-3.216,0.293-4.166
			c-0.578-0.453-1.269-0.416-1.965-0.436c-1.481,0.006-2.961,0.002-4.442,0.006c0.004,3.301-0.002,6.603,0.002,9.906
			c1.411-0.002,2.821,0.002,4.232,0c0.754-0.015,1.633-0.062,2.321-0.403C76.484,8.867,76.787,6.998,76.102,5.774z M71.321,2.18
			c0.603-0.021,1.417-0.127,1.947,0.212c0.389,0.455,0.322,1.19-0.204,1.517c-0.559,0.141-1.188,0.083-1.762,0.079
			C71.302,3.385,71.277,2.78,71.321,2.18z M73.228,7.806c-0.615,0.143-1.296,0.075-1.924,0.083c0-0.654-0.029-1.315,0.017-1.967
			c0.65-0.029,1.388-0.093,2.011,0.112C74.066,6.353,73.978,7.548,73.228,7.806z"/>
	</g>
</g>
<g id="Layer_1">
</g>
</svg>
