<?xml version="1.0" encoding="iso-8859-1"?>
<!-- Generator: Adobe Illustrator 19.0.0, SVG Export Plug-In . SVG Version: 6.00 Build 0)  -->
<svg version="1.1" xmlns="http://www.w3.org/2000/svg" xmlns:xlink="http://www.w3.org/1999/xlink" x="0px" y="0px"
	 viewBox="0 0 90.011 15.188" style="enable-background:new 0 0 90.011 15.188;" xml:space="preserve">
<g id="netller">
	<g id="XMLID_6_">
		<path id="XMLID_90_" style="fill:#E6E7E8;" d="M79.383,6.403c-0.483,0.336-1.183,0.503-2.142,0.503h-0.416H76.29l0.729-3.938
			h0.369h0.33c0.796,0,1.377,0.128,1.778,0.388c0.313,0.204,0.684,0.607,0.684,1.373C80.18,5.652,79.748,6.148,79.383,6.403
			 M22.666,11.344h-7.358l0.476-2.574h4.615l0.524-2.899h-4.571l0.442-2.547h7.345L22.666,11.344z M83.346,1.115
			C82.265,0.374,80.628,0,78.481,0H72.86l-2.089,11.345h-7.364l0.472-2.574h4.436l0.527-2.891l-4.434,0.008l0.475-2.563h4.569
			L70.06,0h-9.28l-1.983,10.762h-3.403L57.392,0H52.54l-1.983,10.762h-3.318l2-10.762h-4.847l-2.095,11.345h-7.416l0.467-2.574
			h4.456l0.525-2.874l-4.45-0.004l0.473-2.568h4.619L41.577,0H12.665l-1.646,8.99L7.74,0H2.708L0,14.671h4.805l1.639-9.237
			l3.182,9.237H26.85l2.094-11.347h2.695l-2.095,11.347h45.321l1.313-7.163l2.128,7.163h4.808L80.91,8.819l0.503-0.109
			c1.108-0.237,1.975-0.748,2.577-1.514c0.603-0.773,0.909-1.765,0.909-2.958C84.899,2.85,84.392,1.829,83.346,1.115"/>
		<path id="XMLID_87_" style="fill:#E6E7E8;" d="M87.309,12.936l0.655-0.034c0.139-0.006,0.248-0.027,0.325-0.06
			c0.077-0.032,0.135-0.081,0.172-0.148c0.037-0.066,0.055-0.135,0.05-0.21c-0.006-0.11-0.05-0.197-0.132-0.264
			c-0.083-0.066-0.21-0.094-0.381-0.086l-0.729,0.037L87.309,12.936z M87.067,14.239l-0.118-2.308l1.024-0.052
			c0.205-0.011,0.361,0.002,0.471,0.039c0.11,0.036,0.198,0.105,0.268,0.207c0.069,0.102,0.108,0.214,0.113,0.342
			c0.009,0.164-0.037,0.304-0.137,0.422c-0.1,0.117-0.26,0.197-0.479,0.239c0.082,0.036,0.146,0.07,0.189,0.105
			c0.094,0.077,0.183,0.176,0.269,0.295l0.43,0.608l-0.38,0.019l-0.33-0.465c-0.096-0.135-0.175-0.237-0.236-0.307
			c-0.061-0.07-0.116-0.119-0.163-0.146c-0.046-0.027-0.095-0.045-0.142-0.055c-0.036-0.005-0.092-0.006-0.171-0.002l-0.352,0.018
			l0.051,1.026L87.067,14.239z"/>
		<path id="XMLID_7_" style="fill:#E6E7E8;" d="M86.067,13.122c-0.023-0.477,0.139-0.935,0.459-1.289
			c0.32-0.355,0.761-0.564,1.239-0.588c0.984-0.051,1.827,0.709,1.878,1.695c0.002,0.03,0.003,0.063,0.003,0.092
			c0,0.946-0.745,1.738-1.7,1.788C86.96,14.87,86.118,14.108,86.067,13.122 M87.744,10.877c-0.574,0.031-1.105,0.282-1.49,0.709
			c-0.386,0.427-0.583,0.981-0.553,1.556c0.062,1.187,1.077,2.103,2.265,2.043c1.186-0.061,2.104-1.077,2.042-2.264V12.92
			C89.948,11.733,88.933,10.816,87.744,10.877"/>
	</g>
</g>
<g id="Layer_1">
</g>
</svg>
