<?xml version="1.0" encoding="iso-8859-1"?>
<!-- Generator: Adobe Illustrator 19.0.0, SVG Export Plug-In . SVG Version: 6.00 Build 0)  -->
<svg version="1.1" xmlns="http://www.w3.org/2000/svg" xmlns:xlink="http://www.w3.org/1999/xlink" x="0px" y="0px"
	 viewBox="0 0 89.386 22.874" style="enable-background:new 0 0 89.386 22.874;" xml:space="preserve">
<g id="_x5B_aysfae">
	<g id="XMLID_313_">
		<path id="XMLID_314_" style="fill:#E6E7E8;" d="M11.643,6.376c0.01-0.682,0.162-1.2,0.457-1.554
			c0.154-0.149,0.348-0.273,0.582-0.376c0.244-0.109,0.48-0.161,0.71-0.161h2.781c1.227,0.01,1.85,0.681,1.871,2.014V10.4
			c-0.01,0.473-0.194,0.884-0.554,1.228c-0.354,0.361-0.778,0.545-1.271,0.555h-2.63v2.957h-1.945V6.376z M16.096,6.763
			c-0.01-0.309-0.156-0.47-0.44-0.481h-1.515c-0.359,0.022-0.543,0.219-0.553,0.589v2.725c0.01,0.382,0.213,0.576,0.612,0.588h1.388
			c0.144,0,0.264-0.054,0.36-0.163c0.1-0.082,0.147-0.187,0.147-0.318V6.763z"/>
		<path id="XMLID_315_" style="fill:#E6E7E8;" d="M24.08,6.715c0.01-0.299-0.164-0.442-0.524-0.432h-3.918V4.284h4.412
			c1.285,0.02,1.937,0.642,1.959,1.867v4.18c-0.011,0.529-0.173,0.965-0.487,1.312c-0.329,0.359-0.752,0.54-1.271,0.54h-2.668
			c-1.297-0.011-1.955-0.603-1.976-1.782V8.789c0.01-1.231,0.639-1.856,1.884-1.878h2.588V6.715z M21.554,9.789
			c0,0.114,0.052,0.205,0.156,0.271c0.092,0.082,0.207,0.124,0.352,0.124h1.495c0.338,0,0.513-0.131,0.523-0.396V9.231
			c0-0.304-0.178-0.458-0.537-0.458h-1.481c-0.194,0-0.328,0.032-0.404,0.093c-0.069,0.073-0.105,0.215-0.105,0.426V9.789z"/>
		<path id="XMLID_334_" style="fill:#E6E7E8;" d="M31.474,13.143c0.155-0.01,0.287-0.066,0.396-0.165
			c0.104-0.093,0.157-0.199,0.157-0.32v-0.185v-0.289h-2.491c-0.325,0-0.585-0.042-0.779-0.124
			c-0.204-0.075-0.409-0.215-0.613-0.413c-0.195-0.211-0.335-0.431-0.419-0.662c-0.089-0.21-0.134-0.478-0.134-0.8V4.284h1.946
			v5.267c0,0.423,0.172,0.634,0.521,0.634h1.374c0.163,0,0.305-0.054,0.424-0.163c0.115-0.092,0.172-0.202,0.172-0.332V9.474v-5.19
			h1.929v8.705c-0.011,0.644-0.176,1.16-0.495,1.551c-0.324,0.391-0.766,0.591-1.329,0.601H27.59v-1.998H31.474z"/>
		<path id="XMLID_333_" style="fill:#E6E7E8;" d="M35.484,10.185h3.467c0.317-0.011,0.482-0.138,0.491-0.382V9.624
			c0-0.052-0.015-0.11-0.045-0.172c-0.078-0.151-0.173-0.226-0.286-0.226h-0.207h-1.512C36.882,9.215,36.447,9.04,36.081,8.7
			c-0.37-0.313-0.56-0.699-0.57-1.151v-1.49c0.02-1.163,0.651-1.755,1.896-1.775h4.021v1.998h-3.406
			c-0.401,0-0.602,0.123-0.602,0.367v0.194c0,0.253,0.206,0.38,0.616,0.38h1.713c0.457,0.01,0.846,0.185,1.17,0.526
			c0.328,0.344,0.497,0.752,0.508,1.226v1.458c-0.011,0.41-0.2,0.818-0.565,1.227c-0.178,0.2-0.36,0.337-0.541,0.416
			c-0.189,0.071-0.444,0.107-0.77,0.107h-4.067V10.185z"/>
		<path id="XMLID_316_" style="fill:#E6E7E8;" d="M47.285,6.715c0.008-0.299-0.166-0.442-0.525-0.433h-3.918V4.284h4.413
			c1.285,0.02,1.936,0.641,1.957,1.867v4.18c-0.01,0.529-0.174,0.965-0.486,1.312c-0.327,0.359-0.751,0.539-1.27,0.539h-2.668
			c-1.298-0.011-1.956-0.603-1.974-1.782V8.789c0.009-1.231,0.637-1.857,1.884-1.878h2.589V6.715z M44.757,9.789
			c0,0.114,0.052,0.205,0.158,0.271c0.09,0.082,0.207,0.124,0.35,0.124h1.497c0.339,0,0.513-0.131,0.523-0.396V9.231
			c0-0.304-0.181-0.458-0.539-0.458h-1.481c-0.195,0-0.328,0.032-0.403,0.093c-0.069,0.073-0.106,0.215-0.106,0.426V9.789z"/>
		<path id="XMLID_330_" style="fill:#E6E7E8;" d="M50.793,3.15c0.012-0.539,0.211-0.973,0.601-1.298
			c0.378-0.33,0.874-0.499,1.488-0.509h1.236v1.932h-0.748c-0.411,0.008-0.621,0.206-0.629,0.586v0.423h1.378v2H52.74v5.9h-1.947
			V3.15z"/>
		<path id="XMLID_317_" style="fill:#E6E7E8;" d="M57.242,9.503v0.124c0,0.161,0.041,0.287,0.126,0.379
			c0.061,0.118,0.143,0.179,0.253,0.179h0.246h3.751v1.999h-4.25c-0.388,0-0.69-0.037-0.903-0.109
			c-0.234-0.077-0.443-0.203-0.626-0.377c-0.214-0.212-0.36-0.427-0.433-0.648c-0.08-0.231-0.12-0.538-0.12-0.92L55.27,6.128
			c0.022-1.209,0.653-1.824,1.894-1.845h2.622c1.212,0.02,1.827,0.658,1.846,1.912v1.581L57.242,9.503z M59.651,6.677V6.631
			c0-0.103-0.041-0.19-0.126-0.255c-0.09-0.063-0.202-0.094-0.335-0.094h-1.355c-0.173,0-0.313,0.049-0.422,0.149
			c-0.135,0.092-0.203,0.213-0.203,0.363v0.802L59.651,6.677z"/>
		<path id="XMLID_327_" style="fill:#E6E7E8;" d="M65.749,12.184c-0.295,0-0.564-0.027-0.808-0.077
			c-0.255-0.042-0.51-0.161-0.771-0.361c-0.268-0.232-0.452-0.493-0.553-0.781C63.512,10.682,63.46,10.361,63.46,10V6.27
			c-0.011-0.304,0.019-0.572,0.09-0.803c0.066-0.232,0.203-0.458,0.411-0.679c0.236-0.234,0.478-0.388,0.734-0.464
			c0.246-0.062,0.522-0.093,0.832-0.093h2.982v0.467h-2.913c-0.514,0-0.918,0.106-1.214,0.317c-0.303,0.231-0.456,0.629-0.456,1.189
			v3.733c0,0.263,0.04,0.517,0.119,0.764c0.082,0.243,0.218,0.455,0.414,0.641c0.212,0.161,0.423,0.261,0.629,0.303
			c0.215,0.046,0.445,0.069,0.689,0.069h2.779v0.469H65.749z"/>
		<path id="XMLID_318_" style="fill:#E6E7E8;" d="M76.642,10.032c0,0.3-0.022,0.564-0.061,0.795
			c-0.064,0.253-0.193,0.496-0.389,0.727c-0.408,0.43-0.914,0.64-1.518,0.629h-2.325c-0.604,0-1.093-0.18-1.473-0.539
			c-0.387-0.355-0.584-0.848-0.584-1.482V8.961c0.02-1.357,0.696-2.052,2.028-2.083h3.872V6.351c0-0.433-0.125-0.813-0.375-1.14
			c-0.159-0.212-0.346-0.353-0.559-0.427c-0.215-0.056-0.457-0.085-0.727-0.085h-4.224V4.232h4.005c0.366,0,0.698,0.026,0.997,0.077
			c0.154,0.031,0.294,0.09,0.424,0.177c0.136,0.083,0.264,0.204,0.383,0.363c0.359,0.463,0.535,0.998,0.527,1.6V10.032z
			 M76.178,7.344h-3.91C71.8,7.355,71.434,7.5,71.169,7.778c-0.273,0.283-0.408,0.671-0.408,1.165v1.19
			c0,0.231,0.024,0.442,0.074,0.632c0.05,0.2,0.172,0.378,0.366,0.533c0.338,0.28,0.711,0.418,1.12,0.418h2.369
			c0.99-0.01,1.488-0.532,1.488-1.567V7.344z"/>
		<path id="XMLID_324_" style="fill:#E6E7E8;" d="M81.015,4.699c-1.085,0.02-1.619,0.612-1.599,1.777v5.707H78.95V6.478
			c-0.022-1.498,0.691-2.245,2.139-2.245h0.518v0.467H81.015z"/>
		<path id="XMLID_319_" style="fill:#E6E7E8;" d="M89.355,9.974c-0.041,1.506-0.839,2.244-2.391,2.212h-1.727
			c-0.365,0-0.691-0.031-0.98-0.092c-0.297-0.078-0.581-0.258-0.854-0.541c-0.206-0.253-0.338-0.509-0.391-0.772
			c-0.071-0.262-0.102-0.554-0.091-0.872V6.513c0.02-1.53,0.791-2.29,2.313-2.278h3.656V1.656h0.466V9.974z M88.889,4.702h-3.685
			c-0.266,0-0.504,0.03-0.718,0.086c-0.224,0.051-0.441,0.187-0.644,0.409c-0.195,0.202-0.316,0.402-0.369,0.602
			C83.406,6,83.375,6.243,83.387,6.525v3.639c0,0.605,0.175,1.017,0.53,1.237c0.175,0.103,0.367,0.18,0.584,0.232
			c0.216,0.057,0.455,0.085,0.719,0.085h1.61c0.601,0,1.094-0.138,1.472-0.418c0.38-0.261,0.574-0.714,0.587-1.359V4.702z"/>
		<path id="XMLID_321_" style="fill:#BCBEC0;" d="M0.836,3.983c0.153-0.067,0.306-0.12,0.458-0.153
			C1.575,2.49,2.762,1.484,4.186,1.484c1.424,0,2.613,1.008,2.893,2.348c0.438,0.083,0.799,0.26,1.081,0.523
			c0.012-0.257,0.001-0.505-0.029-0.739C7.95,1.589,6.251,0,4.18,0C2.047,0,0.312,1.69,0.222,3.803
			c-0.013,0.182-0.016,0.372-0.01,0.571C0.39,4.224,0.595,4.088,0.836,3.983"/>
		<path id="XMLID_320_" style="fill:#BCBEC0;" d="M6.501,4.284H1.749c-0.229,0-0.466,0.053-0.709,0.162
			C0.804,4.549,0.611,4.673,0.457,4.821C0.162,5.176,0.01,5.694,0,6.375v3.715c0.01,0.683,0.162,1.2,0.457,1.554
			c0.154,0.15,0.347,0.275,0.583,0.378c0.244,0.107,0.48,0.161,0.709,0.161h4.752c1.227-0.011,1.852-0.684,1.871-2.015v-3.87
			C8.352,4.965,7.728,4.295,6.501,4.284"/>
		<path id="XMLID_384_" style="fill:#E6E7E8;" d="M35.569,22.874v-3.996c0-0.067,0.006-0.127,0.013-0.187
			c0.061-0.475,0.247-0.681,0.682-0.761c0.04-0.008,0.087-0.016,0.127-0.016H37.7c0.067,0,0.127,0.008,0.188,0.021
			c0.461,0.08,0.695,0.374,0.695,0.902v1.87c0,0.147-0.054,0.307-0.167,0.455c-0.035,0.041-0.067,0.079-0.101,0.112
			c-0.173,0.161-0.375,0.249-0.588,0.249h-1.242v1.35C36.477,22.848,35.569,22.874,35.569,22.874 M36.491,20.389
			c0.02,0.132,0.087,0.195,0.227,0.214c0.014,0.006,0.034,0.006,0.054,0.006h0.655h0.04c0.067-0.014,0.114-0.04,0.146-0.079
			c0.034-0.056,0.053-0.104,0.053-0.136v-1.348v-0.028c-0.02-0.106-0.059-0.156-0.172-0.181c-0.014-0.006-0.022-0.006-0.033-0.006
			h-0.717c-0.113,0-0.179,0.046-0.226,0.154c-0.027,0.053-0.034,0.086-0.034,0.118v1.231C36.484,20.355,36.484,20.368,36.491,20.389
			"/>
		<path id="XMLID_387_" style="fill:#E6E7E8;" d="M39.209,20.71v-0.735c0-0.543,0.336-0.857,0.881-0.857h1.224l-0.006-0.193
			c0-0.087-0.061-0.12-0.193-0.14h-0.048h-1.843v-0.87H41.3c0.054,0,0.107,0.007,0.16,0.015c0.463,0.054,0.677,0.247,0.748,0.675
			c0.015,0.053,0.015,0.107,0.015,0.158v1.911c0,0.053,0,0.115-0.015,0.167c-0.078,0.416-0.399,0.683-0.814,0.683h-1.255
			c-0.535,0-0.836-0.235-0.916-0.657C39.229,20.816,39.209,20.71,39.209,20.71 M40.172,20.548c0.026,0.039,0.072,0.067,0.14,0.081
			c0.019,0.006,0.032,0.006,0.046,0.006h0.715c0.087,0,0.14-0.02,0.182-0.066c0.032-0.04,0.053-0.087,0.053-0.142v-0.253
			c0-0.114-0.007-0.127-0.115-0.18c-0.026-0.019-0.06-0.027-0.127-0.027h-0.762l-0.04,0.007c-0.087,0.013-0.126,0.054-0.141,0.173
			v0.054v0.226C40.124,20.455,40.139,20.51,40.172,20.548"/>
		<path id="XMLID_390_" style="fill:#E6E7E8;" d="M42.85,22.874v-0.916h1.832c0.019,0,0.041,0,0.053-0.006
			c0.128-0.027,0.188-0.102,0.207-0.214v-0.083v-0.132H43.76c-0.367,0-0.562-0.094-0.782-0.407
			c-0.087-0.128-0.128-0.268-0.128-0.509v-2.693h0.915v2.407c0,0.193,0.087,0.286,0.249,0.286h0.648c0.013,0,0.034,0,0.053-0.006
			c0.127-0.02,0.208-0.102,0.227-0.221v-0.093v-2.373h0.908v3.975c0,0.062,0,0.121-0.012,0.181
			c-0.061,0.442-0.288,0.695-0.662,0.783c-0.061,0.012-0.127,0.02-0.188,0.02H42.85z"/>
		<path id="XMLID_391_" style="fill:#E6E7E8;" d="M47.383,20.589V18.77c0-0.513,0.207-0.766,0.614-0.839
			c0.047-0.008,0.1-0.015,0.147-0.015h1.663v0.917h-1.236c-0.194,0-0.247,0.025-0.274,0.146v0.115v1.261
			c0,0.054,0.014,0.108,0.046,0.148c0.047,0.073,0.116,0.106,0.208,0.106h1.255v0.916h-1.468
			C47.684,21.524,47.383,21.223,47.383,20.589"/>
		<path id="XMLID_392_" style="fill:#E6E7E8;" d="M50.336,20.71v-0.735c0-0.543,0.334-0.857,0.881-0.857h1.225l-0.007-0.193
			c0-0.087-0.061-0.12-0.195-0.14h-0.047h-1.845v-0.87h2.078c0.053,0,0.107,0.007,0.16,0.015c0.463,0.054,0.676,0.247,0.749,0.675
			c0.014,0.053,0.014,0.107,0.014,0.158v1.911c0,0.053,0,0.115-0.014,0.167c-0.081,0.416-0.4,0.683-0.814,0.683h-1.258
			c-0.534,0-0.835-0.235-0.915-0.657C50.356,20.816,50.336,20.71,50.336,20.71 M51.298,20.548c0.026,0.039,0.072,0.067,0.14,0.081
			c0.019,0.006,0.033,0.006,0.047,0.006H52.2c0.088,0,0.14-0.02,0.181-0.066c0.032-0.04,0.054-0.087,0.054-0.142v-0.253
			c0-0.114-0.008-0.127-0.115-0.18c-0.027-0.019-0.059-0.027-0.127-0.027h-0.761l-0.041,0.007c-0.087,0.013-0.128,0.054-0.14,0.173
			v0.054v0.226C51.252,20.455,51.264,20.51,51.298,20.548"/>
		<path id="XMLID_395_" style="fill:#E6E7E8;" d="M53.883,21.524v-0.916h1.589h0.04c0.107-0.02,0.162-0.052,0.181-0.14
			c0.007-0.014,0.007-0.028,0.007-0.043v-0.072c0-0.019-0.007-0.046-0.02-0.08c-0.033-0.061-0.067-0.087-0.135-0.1h-0.092h-0.695
			c-0.146,0-0.28-0.034-0.394-0.1c-0.328-0.181-0.462-0.387-0.462-0.668V18.73c0-0.066,0.008-0.14,0.026-0.206
			c0.095-0.392,0.394-0.609,0.863-0.609h1.844l0.008,0.917h-1.571h-0.081h-0.012c-0.028,0.006-0.047,0.013-0.073,0.025
			c-0.007,0.006-0.014,0.013-0.02,0.021c-0.06,0.052-0.082,0.095-0.082,0.121v0.086c0,0.021,0.015,0.061,0.047,0.108
			c0.028,0.034,0.068,0.054,0.175,0.066h0.047h0.769c0.232,0,0.414,0.087,0.574,0.274c0.146,0.182,0.221,0.375,0.221,0.528
			l-0.012,0.663c0,0.151-0.056,0.299-0.141,0.434c-0.201,0.279-0.376,0.367-0.716,0.367H53.883z"/>
		<path id="XMLID_396_" style="fill:#E6E7E8;" d="M57.225,21.524v-4.957h0.914v1.347h1.243c0.052,0,0.101,0.008,0.146,0.016
			c0.394,0.08,0.609,0.301,0.682,0.667c0.005,0.046,0.005,0.094,0.005,0.141v2.786H59.31v-2.412v-0.079l-0.008-0.034
			c0-0.101-0.055-0.153-0.18-0.167h-0.049h-0.675c-0.111,0-0.16,0.018-0.206,0.066c-0.033,0.032-0.046,0.067-0.053,0.101v0.119
			v2.406H57.225z"/>
		<path id="XMLID_397_" style="fill:#E6E7E8;" d="M60.696,20.969c-0.005-0.153,0.055-0.3,0.162-0.412
			c0.22-0.228,0.594-0.234,0.813,0c0.222,0.218,0.222,0.581-0.004,0.801c-0.214,0.22-0.568,0.22-0.797,0.007
			C60.765,21.263,60.705,21.124,60.696,20.969"/>
		<path id="XMLID_398_" style="fill:#E6E7E8;" d="M64.258,22.874v-3.996c0-0.067,0.007-0.127,0.013-0.187
			c0.061-0.475,0.248-0.681,0.681-0.761c0.04-0.008,0.087-0.016,0.127-0.016h1.31c0.066,0,0.127,0.008,0.187,0.021
			c0.462,0.08,0.696,0.374,0.696,0.902v1.87c0,0.147-0.056,0.307-0.169,0.455c-0.033,0.041-0.065,0.079-0.1,0.112
			c-0.173,0.161-0.373,0.249-0.587,0.249h-1.242v1.35C65.167,22.848,64.258,22.874,64.258,22.874 M65.181,20.389
			c0.021,0.132,0.087,0.195,0.227,0.214c0.013,0.006,0.034,0.006,0.054,0.006h0.654h0.04c0.067-0.014,0.114-0.04,0.146-0.079
			c0.035-0.056,0.056-0.104,0.056-0.136v-1.348v-0.028c-0.021-0.106-0.064-0.156-0.175-0.181c-0.014-0.006-0.02-0.006-0.034-0.006
			h-0.714c-0.114,0-0.18,0.046-0.227,0.154c-0.027,0.053-0.034,0.086-0.034,0.118v1.231C65.174,20.355,65.174,20.368,65.181,20.389"
			/>
		<path id="XMLID_401_" style="fill:#E6E7E8;" d="M67.899,20.71v-0.735c0-0.543,0.335-0.857,0.883-0.857h1.222l-0.005-0.193
			c0-0.087-0.063-0.12-0.196-0.14h-0.046h-1.845v-0.87h2.079c0.053,0,0.108,0.007,0.16,0.015c0.461,0.054,0.674,0.247,0.749,0.675
			c0.01,0.053,0.01,0.107,0.01,0.158v1.911c0,0.053,0,0.115-0.01,0.167c-0.08,0.416-0.404,0.683-0.817,0.683h-1.255
			c-0.535,0-0.836-0.235-0.916-0.657C67.92,20.816,67.899,20.71,67.899,20.71 M68.862,20.548c0.028,0.039,0.073,0.067,0.141,0.081
			c0.02,0.006,0.032,0.006,0.045,0.006h0.716c0.087,0,0.139-0.02,0.18-0.066c0.035-0.04,0.055-0.087,0.055-0.142v-0.253
			c0-0.114-0.008-0.127-0.115-0.18c-0.026-0.019-0.059-0.027-0.127-0.027h-0.761l-0.041,0.007c-0.088,0.013-0.127,0.054-0.141,0.173
			v0.054v0.226C68.815,20.455,68.828,20.51,68.862,20.548"/>
		<path id="XMLID_404_" style="fill:#E6E7E8;" d="M71.54,22.874v-0.916h1.832c0.019,0,0.039,0,0.053-0.006
			c0.127-0.027,0.185-0.102,0.206-0.214v-0.083v-0.132H72.45c-0.369,0-0.563-0.094-0.784-0.407
			c-0.087-0.128-0.126-0.268-0.126-0.509v-2.693h0.916v2.407c0,0.193,0.086,0.286,0.247,0.286h0.648c0.013,0,0.033,0,0.053-0.006
			c0.127-0.02,0.206-0.102,0.227-0.221v-0.093v-2.373h0.909v3.975c0,0.062,0,0.121-0.013,0.181c-0.06,0.442-0.287,0.695-0.663,0.783
			c-0.06,0.012-0.125,0.02-0.186,0.02H71.54z"/>
		<path id="XMLID_405_" style="fill:#E6E7E8;" d="M76.026,21.524v-0.916h1.591h0.038c0.108-0.02,0.161-0.052,0.182-0.14
			c0.006-0.014,0.006-0.028,0.006-0.043v-0.072c0-0.019-0.006-0.046-0.019-0.08c-0.034-0.061-0.066-0.087-0.134-0.1h-0.093h-0.695
			c-0.147,0-0.282-0.034-0.394-0.1c-0.327-0.181-0.461-0.387-0.461-0.668V18.73c0-0.066,0.007-0.14,0.026-0.206
			c0.093-0.392,0.394-0.609,0.862-0.609h1.842l0.007,0.917h-1.568h-0.081h-0.013c-0.027,0.006-0.047,0.013-0.072,0.025
			c-0.008,0.006-0.014,0.013-0.02,0.021c-0.061,0.052-0.081,0.095-0.081,0.121v0.086c0,0.021,0.013,0.061,0.046,0.108
			c0.027,0.034,0.067,0.054,0.173,0.066h0.048h0.767c0.234,0,0.414,0.087,0.576,0.274c0.146,0.182,0.218,0.375,0.218,0.528
			l-0.014,0.663c0,0.151-0.051,0.299-0.138,0.434c-0.201,0.279-0.374,0.367-0.716,0.367H76.026z"/>
		<path id="XMLID_406_" style="fill:#E6E7E8;" d="M79.366,20.71v-0.735c0-0.543,0.334-0.857,0.881-0.857h1.223l-0.007-0.193
			c0-0.087-0.06-0.12-0.193-0.14h-0.047H79.38v-0.87h2.079c0.052,0,0.107,0.007,0.159,0.015c0.461,0.054,0.676,0.247,0.749,0.675
			c0.012,0.053,0.012,0.107,0.012,0.158v1.911c0,0.053,0,0.115-0.012,0.167c-0.08,0.416-0.403,0.683-0.817,0.683h-1.256
			c-0.534,0-0.835-0.235-0.915-0.657C79.386,20.816,79.366,20.71,79.366,20.71 M80.329,20.548c0.026,0.039,0.073,0.067,0.14,0.081
			c0.02,0.006,0.034,0.006,0.047,0.006h0.715c0.085,0,0.14-0.02,0.181-0.066c0.034-0.04,0.052-0.087,0.052-0.142v-0.253
			c0-0.114-0.005-0.127-0.114-0.18c-0.027-0.019-0.059-0.027-0.126-0.027h-0.762l-0.039,0.007c-0.086,0.013-0.128,0.054-0.14,0.173
			v0.054v0.226C80.282,20.455,80.295,20.51,80.329,20.548"/>
		<path id="XMLID_409_" style="fill:#E6E7E8;" d="M83.009,21.524v-4.129c0-0.453,0.385-0.822,0.974-0.822h0.582v0.875h-0.347
			c-0.013,0-0.034,0.008-0.047,0.008c-0.167,0.024-0.248,0.119-0.248,0.267v0.191h0.642v0.917h-0.642v2.692H83.009z"/>
		<path id="XMLID_410_" style="fill:#E6E7E8;" d="M84.811,18.759c0-0.06,0.008-0.121,0.022-0.182
			c0.101-0.44,0.375-0.661,0.875-0.661h1.243c0.055,0,0.107,0.007,0.161,0.015c0.421,0.066,0.641,0.294,0.696,0.707
			c0.005,0.046,0.005,0.1,0.005,0.153v0.722l-2.071,0.781v0.061c0,0.148,0.066,0.253,0.18,0.253h1.886v0.916h-2.012
			c-0.295,0-0.416-0.028-0.542-0.099c-0.319-0.175-0.442-0.414-0.442-0.837V18.759z M86.881,19.059v-0.02v-0.015
			c-0.012-0.06-0.066-0.12-0.173-0.142c-0.017-0.005-0.032-0.005-0.045-0.005h-0.641c-0.02,0-0.053,0.005-0.101,0.02
			c-0.094,0.027-0.14,0.061-0.173,0.121c-0.013,0.028-0.02,0.061-0.02,0.093v0.367L86.881,19.059z"/>
		<path id="XMLID_413_" style="fill:#E6E7E8;" d="M88.245,20.969c-0.008-0.153,0.054-0.3,0.161-0.412
			c0.221-0.228,0.593-0.234,0.816,0c0.22,0.218,0.22,0.581-0.007,0.801c-0.216,0.22-0.568,0.22-0.795,0.007
			C88.313,21.263,88.252,21.124,88.245,20.969"/>
	</g>
</g>
<g id="Layer_1">
</g>
</svg>
